pocketscope_sim/.Xil/Vivado-3172-MOSS550W/hw_ila_data_1/zip_work/waveform.vcd
$date
        2026-Jun-26 21:17:01
$end
$version
        Vivado v2025.1 (64-bit)
$end
$timescale
        1ps
$end
$scope module dut $end
$var reg 64 " u_ila_adc/probe [63:0] $end
$var reg 1 b _TRIGGER $end
$var reg 1 c _WINDOW $end
$var reg 1 d _GAP $end
$upscope $end
$enddefinitions $end
#0
$dumpvars
b110100001000000111000000000000000000000000000000000000000000100 "
0b
1c
0d
$end
#1
b110100001000000111000000000000000000000000000000000000000000000 "
#3
b110100000000000111000000000000000000000000000000000000000000100 "
#4
b100100010000000111000000000000000000000000000000000000000000100 "
#5
b100101000000000111000000000000000000000000000000000000000000000 "
#7
b100101000000000111000000000000000000000000000000000000000000100 "
#9
b100101000000000111000000000000000000000000000000000000000000000 "
#11
b100101000100000111000000000000000000000000000000000000000000100 "
#13
b100100000100000111000000000000000000000000000000000000000000000 "
#15
b100100000000000111010000000000000000000000000000000000000000100 "
#17
b100100000000000111010000000000000000000000000000000000000000000 "
#19
b110100100000000111010000000000000000000000000000000000000000100 "
#20
b110110000000000111010000000000000000000000000000000000000000100 "
#21
b110110000000000111010000000000000000000000000000000000000000000 "
#23
b110110000000000111010000000000000000000000000000000000000000100 "
#25
b110110000000000111010000000000000000000000000000000000000000000 "
#27
b110110001000000111010000000000000000000000000000000000000000100 "
#28
b110100001000000111010000000000000000000000000000000000000000100 "
#29
b110100001000000111010000000000000000000000000000000000000000000 "
#31
b110100000000000111010000000000000000000000000000000000000000100 "
#33
b110100000000000111010000000000000000000000000000000000000000000 "
#34
b100100010000000111010000000000000000000000000000000000000000000 "
#35
b100101000000000111010000000000000000000000000000000000000000100 "
#37
b100101000000000111010000000000000000000000000000000000000000000 "
#39
b100101000000000111010000000000000000000000000000000000000000100 "
#41
b100101000000000111010000000000000000000000000000000000000000000 "
#43
b100100000100000111010000000000000000000000000000000000000000100 "
#45
b100100000100000111010000000000000000000000000000000000000000000 "
#47
b100100000000000111100000000000000000000000000000000000000000100 "
#49
b110100100000000111100000000000000000000000000000000000000000000 "
#50
b110110000000000111100000000000000000000000000000000000000000000 "
#51
b110110000000000111100000000000000000000000000000000000000000100 "
#53
b110110000000000111100000000000000000000000000000000000000000000 "
#55
b110110000000000111100000000000000000000000000000000000000000100 "
#57
b110110000000000111100000000000000000000000000000000000000000000 "
#58
b110100000000000111100000000000000000000000000000000000000000000 "
#59
b110100001000000111100000000000000000000000000000000000000000100 "
#61
b110100001000000111100000000000000000000000000000000000000000000 "
#63
b110100000000000111100000000000000000000000000000000000000000100 "
#64
b100100010000000111100000000000000000000000000000000000000000100 "
#65
b100101000000000111100000000000000000000000000000000000000000000 "
#67
b100101000000000111100000000000000000000000000000000000000000100 "
#69
b100101000000000111100000000000000000000000000000000000000000000 "
#71
b100101000100000111100000000000000000000000000000000000000000100 "
#73
b100100000100000111100000000000000000000000000000000000000000000 "
#75
b100100000000000111110000000000000000000000000000000000000000100 "
#77
b100100000000000111110000000000000000000000000000000000000000000 "
#79
b110100100000000111110000000000000000000000000000000000000000100 "
#80
b110110000000000111110000000000000000000000000000000000000000100 "
#81
b110110000000000111110000000000000000000000000000000000000000000 "
#83
b110110000000000111110000000000000000000000000000000000000000100 "
#85
b110110000000000111110000000000000000000000000000000000000000000 "
#87
b110110001000000111110000000000000000000000000000000000000000100 "
#88
b110100001000000111110000000000000000000000000000000000000000100 "
#89
b110100001000000111110000000000000000000000000000000000000000000 "
#91
b110100000000000111110000000000000000000000000000000000000000100 "
#93
b110100000000000111110000000000000000000000000000000000000000000 "
#94
b100100010000000111110000000000000000000000000000000000000000000 "
#95
b100101000000000111110000000000000000000000000000000000000000100 "
#97
b100101000000000111110000000000000000000000000000000000000000000 "
#99
b100101000000000111110000000000000000000000000000000000000000100 "
#101
b100101000000000111110000000000000000000000000000000000000000000 "
#103
b100100000100000111110000000000000000000000000000000000000000100 "
#105
b100100000100000111110000000000000000000000000000000000000000000 "
#107
b100100000000001000000000000000000000000000000000000000000000100 "
#109
b110100100000001000000000000000000000000000000000000000000000000 "
#110
b110110000000001000000000000000000000000000000000000000000000000 "
#111
b110110000000001000000000000000000000000000000000000000000000100 "
#113
b110110000000001000000000000000000000000000000000000000000000000 "
#115
b110110000000001000000000000000000000000000000000000000000000100 "
#117
b110110000000001000000000000000000000000000000000000000000000000 "
#118
b110100000000001000000000000000000000000000000000000000000000000 "
#119
b110100001000001000000000000000000000000000000000000000000000100 "
#121
b110100001000001000000000000000000000000000000000000000000000000 "
#123
b110100000000001000000000000000000000000000000000000000000000100 "
#124
b100100010000001000000000000000000000000000000000000000000000100 "
#125
b100101000000001000000000000000000000000000000000000000000000000 "
#127
b100101000000001000000000000000000000000000000000000000000000100 "
#129
b100101000000001000000000000000000000000000000000000000000000000 "
#131
b100101000100001000000000000000000000000000000000000000000000100 "
#133
b100100000100001000000000000000000000000000000000000000000000000 "
#135
b100100000000001000010000000000000000000000000000000000000000100 "
#137
b100100000000001000010000000000000000000000000000000000000000000 "
#139
b110100100000001000010000000000000000000000000000000000000000100 "
#140
b110110000000001000010000000000000000000000000000000000000000100 "
#141
b110110000000001000010000000000000000000000000000000000000000000 "
#143
b110110000000001000010000000000000000000000000000000000000000100 "
#145
b110110000000001000010000000000000000000000000000000000000000000 "
#147
b110110001000001000010000000000000000000000000000000000000000100 "
#148
b110100001000001000010000000000000000000000000000000000000000100 "
#149
b110100001000001000010000000000000000000000000000000000000000000 "
#151
b110100000000001000010000000000000000000000000000000000000000100 "
#153
b110100000000001000010000000000000000000000000000000000000000000 "
#154
b100100010000001000010000000000000000000000000000000000000000000 "
#155
b100101000000001000010000000000000000000000000000000000000000100 "
#157
b100101000000001000010000000000000000000000000000000000000000000 "
#159
b100101000000001000010000000000000000000000000000000000000000100 "
#161
b100101000000001000010000000000000000000000000000000000000000000 "
#163
b100100000100001000010000000000000000000000000000000000000000100 "
#165
b100100000100001000010000000000000000000000000000000000000000000 "
#167
b100100000000001000100000000000000000000000000000000000000000100 "
#169
b110100100000001000100000000000000000000000000000000000000000000 "
#170
b110110000000001000100000000000000000000000000000000000000000000 "
#171
b110110000000001000100000000000000000000000000000000000000000100 "
#173
b110110000000001000100000000000000000000000000000000000000000000 "
#175
b110110000000001000100000000000000000000000000000000000000000100 "
#177
b110110000000001000100000000000000000000000000000000000000000000 "
#178
b110100000000001000100000000000000000000000000000000000000000000 "
#179
b110100001000001000100000000000000000000000000000000000000000100 "
#181
b110100001000001000100000000000000000000000000000000000000000000 "
#183
b110100000000001000100000000000000000000000000000000000000000100 "
#184
b100100010000001000100000000000000000000000000000000000000000100 "
#185
b100101000000001000100000000000000000000000000000000000000000000 "
#187
b100101000000001000100000000000000000000000000000000000000000100 "
#189
b100101000000001000100000000000000000000000000000000000000000000 "
#191
b100101000100001000100000000000000000000000000000000000000000100 "
#193
b100100000100001000100000000000000000000000000000000000000000000 "
#195
b100100000000001000110000000000000000000000000000000000000000100 "
#197
b100100000000001000110000000000000000000000000000000000000000000 "
#199
b110100100000001000110000000000000000000000000000000000000000100 "
#200
b110110000000001000110000000000000000000000000000000000000000100 "
#201
b110110000000001000110000000000000000000000000000000000000000000 "
#203
b110110000000001000110000000000000000000000000000000000000000100 "
#205
b110110000000001000110000000000000000000000000000000000000000000 "
#207
b110110001000001000110000000000000000000000000000000000000000100 "
#208
b110100001000001000110000000000000000000000000000000000000000100 "
#209
b110100001000001000110000000000000000000000000000000000000000000 "
#211
b110100000000001000110000000000000000000000000000000000000000100 "
#213
b110100000000001000110000000000000000000000000000000000000000000 "
#214
b100100010000001000110000000000000000000000000000000000000000000 "
#215
b100101000000001000110000000000000000000000000000000000000000100 "
#217
b100101000000001000110000000000000000000000000000000000000000000 "
#219
b100101000000001000110000000000000000000000000000000000000000100 "
#221
b100101000000001000110000000000000000000000000000000000000000000 "
#223
b100100000100001000110000000000000000000000000000000000000000100 "
#225
b100100000100001000110000000000000000000000000000000000000000000 "
#227
b100100000000001001000000000000000000000000000000000000000000100 "
#229
b110100100000001001000000000000000000000000000000000000000000000 "
#230
b110110000000001001000000000000000000000000000000000000000000000 "
#231
b110110000000001001000000000000000000000000000000000000000000100 "
#233
b110110000000001001000000000000000000000000000000000000000000000 "
#235
b110110000000001001000000000000000000000000000000000000000000100 "
#237
b110110000000001001000000000000000000000000000000000000000000000 "
#238
b110100000000001001000000000000000000000000000000000000000000000 "
#239
b110100001000001001000000000000000000000000000000000000000000100 "
#241
b110100001000001001000000000000000000000000000000000000000000000 "
#243
b110100000000001001000000000000000000000000000000000000000000100 "
#244
b100100010000001001000000000000000000000000000000000000000000100 "
#245
b100101000000001001000000000000000000000000000000000000000000000 "
#247
b100101000000001001000000000000000000000000000000000000000000100 "
#249
b100101000000001001000000000000000000000000000000000000000000000 "
#251
b100101000100001001000000000000000000000000000000000000000000100 "
#253
b100100000100001001000000000000000000000000000000000000000000000 "
#255
b100100000000001001010000000000000000000000000000000000000000100 "
#257
b100100000000001001010000000000000000000000000000000000000000000 "
#259
b110100100000001001010000000000000000000000000000000000000000100 "
#260
b110110000000001001010000000000000000000000000000000000000000100 "
#261
b110110000000001001010000000000000000000000000000000000000000000 "
#263
b110110000000001001010000000000000000000000000000000000000000100 "
#265
b110110000000001001010000000000000000000000000000000000000000000 "
#267
b110110001000001001010000000000000000000000000000000000000000100 "
#268
b110100001000001001010000000000000000000000000000000000000000100 "
#269
b110100001000001001010000000000000000000000000000000000000000000 "
#271
b110100000000001001010000000000000000000000000000000000000000100 "
#273
b110100000000001001010000000000000000000000000000000000000000000 "
#274
b100100010000001001010000000000000000000000000000000000000000000 "
#275
b100101000000001001010000000000000000000000000000000000000000100 "
#277
b100101000000001001010000000000000000000000000000000000000000000 "
#279
b100101000000001001010000000000000000000000000000000000000000100 "
#281
b100101000000001001010000000000000000000000000000000000000000000 "
#283
b100100000100001001010000000000000000000000000000000000000000100 "
#285
b100100000100001001010000000000000000000000000000000000000000000 "
#287
b100100000000001001100000000000000000000000000000000000000000100 "
#289
b110100100000001001100000000000000000000000000000000000000000000 "
#290
b110110000000001001100000000000000000000000000000000000000000000 "
#291
b110110000000001001100000000000000000000000000000000000000000100 "
#293
b110110000000001001100000000000000000000000000000000000000000000 "
#295
b110110000000001001100000000000000000000000000000000000000000100 "
#297
b110110000000001001100000000000000000000000000000000000000000000 "
#298
b110100000000001001100000000000000000000000000000000000000000000 "
#299
b110100001000001001100000000000000000000000000000000000000000100 "
#301
b110100001000001001100000000000000000000000000000000000000000000 "
#303
b110100000000001001100000000000000000000000000000000000000000100 "
#304
b100100010000001001100000000000000000000000000000000000000000100 "
#305
b100101000000001001100000000000000000000000000000000000000000000 "
#307
b100101000000001001100000000000000000000000000000000000000000100 "
#309
b100101000000001001100000000000000000000000000000000000000000000 "
#311
b100101000100001001100000000000000000000000000000000000000000100 "
#313
b100100000100001001100000000000000000000000000000000000000000000 "
#315
b100100000000001001110000000000000000000000000000000000000000100 "
#317
b100100000000001001110000000000000000000000000000000000000000000 "
#319
b110100100000001001110000000000000000000000000000000000000000100 "
#320
b110110000000001001110000000000000000000000000000000000000000100 "
#321
b110110000000001001110000000000000000000000000000000000000000000 "
#323
b110110000000001001110000000000000000000000000000000000000000100 "
#325
b110110000000001001110000000000000000000000000000000000000000000 "
#327
b110110001000001001110000000000000000000000000000000000000000100 "
#328
b110100001000001001110000000000000000000000000000000000000000100 "
#329
b110100001000001001110000000000000000000000000000000000000000000 "
#331
b110100000000001001110000000000000000000000000000000000000000100 "
#333
b110100000000001001110000000000000000000000000000000000000000000 "
#334
b100100010000001001110000000000000000000000000000000000000000000 "
#335
b100101000000001001110000000000000000000000000000000000000000100 "
#337
b100101000000001001110000000000000000000000000000000000000000000 "
#339
b100101000000001001110000000000000000000000000000000000000000100 "
#341
b100101000000001001110000000000000000000000000000000000000000000 "
#343
b100100000100001001110000000000000000000000000000000000000000100 "
#345
b100100000100001001110000000000000000000000000000000000000000000 "
#347
b100100000000001010000000000000000000000000000000000000000000100 "
#349
b110100100000001010000000000000000000000000000000000000000000000 "
#350
b110110000000001010000000000000000000000000000000000000000000000 "
#351
b110110000000001010000000000000000000000000000000000000000000100 "
#353
b110110000000001010000000000000000000000000000000000000000000000 "
#355
b110110000000001010000000000000000000000000000000000000000000100 "
#357
b110110000000001010000000000000000000000000000000000000000000000 "
#358
b110100000000001010000000000000000000000000000000000000000000000 "
#359
b110100001000001010000000000000000000000000000000000000000000100 "
#361
b110100001000001010000000000000000000000000000000000000000000000 "
#363
b110100000000001010000000000000000000000000000000000000000000100 "
#364
b100100010000001010000000000000000000000000000000000000000000100 "
#365
b100101000000001010000000000000000000000000000000000000000000000 "
#367
b100101000000001010000000000000000000000000000000000000000000100 "
#369
b100101000000001010000000000000000000000000000000000000000000000 "
#371
b100101000100001010000000000000000000000000000000000000000000100 "
#373
b100100000100001010000000000000000000000000000000000000000000000 "
#375
b100100000000001010010000000000000000000000000000000000000000100 "
#377
b100100000000001010010000000000000000000000000000000000000000000 "
#379
b110100100000001010010000000000000000000000000000000000000000100 "
#380
b110110000000001010010000000000000000000000000000000000000000100 "
#381
b110110000000001010010000000000000000000000000000000000000000000 "
#383
b110110000000001010010000000000000000000000000000000000000000100 "
#385
b110110000000001010010000000000000000000000000000000000000000000 "
#387
b110110001000001010010000000000000000000000000000000000000000100 "
#388
b110100001000001010010000000000000000000000000000000000000000100 "
#389
b110100001000001010010000000000000000000000000000000000000000000 "
#391
b110100000000001010010000000000000000000000000000000000000000100 "
#393
b110100000000001010010000000000000000000000000000000000000000000 "
#394
b100100010000001010010000000000000000000000000000000000000000000 "
#395
b100101000000001010010000000000000000000000000000000000000000100 "
#397
b100101000000001010010000000000000000000000000000000000000000000 "
#399
b100101000000001010010000000000000000000000000000000000000000100 "
#401
b100101000000001010010000000000000000000000000000000000000000000 "
#403
b100100000100001010010000000000000000000000000000000000000000100 "
#405
b100100000100001010010000000000000000000000000000000000000000000 "
#407
b100100000000001010100000000000000000000000000000000000000000100 "
#409
b110100100000001010100000000000000000000000000000000000000000000 "
#410
b110110000000001010100000000000000000000000000000000000000000000 "
#411
b110110000000001010100000000000000000000000000000000000000000100 "
#413
b110110000000001010100000000000000000000000000000000000000000000 "
#415
b110110000000001010100000000000000000000000000000000000000000100 "
#417
b110110000000001010100000000000000000000000000000000000000000000 "
#418
b110100000000001010100000000000000000000000000000000000000000000 "
#419
b110100001000001010100000000000000000000000000000000000000000100 "
#421
b110100001000001010100000000000000000000000000000000000000000000 "
#423
b110100000000001010100000000000000000000000000000000000000000100 "
#424
b100100010000001010100000000000000000000000000000000000000000100 "
#425
b100101000000001010100000000000000000000000000000000000000000000 "
#427
b100101000000001010100000000000000000000000000000000000000000100 "
#429
b100101000000001010100000000000000000000000000000000000000000000 "
#431
b100101000100001010100000000000000000000000000000000000000000100 "
#433
b100100000100001010100000000000000000000000000000000000000000000 "
#435
b100100000000001010110000000000000000000000000000000000000000100 "
#437
b100100000000001010110000000000000000000000000000000000000000000 "
#439
b110100100000001010110000000000000000000000000000000000000000100 "
#440
b110110000000001010110000000000000000000000000000000000000000100 "
#441
b110110000000001010110000000000000000000000000000000000000000000 "
#443
b110110000000001010110000000000000000000000000000000000000000100 "
#445
b110110000000001010110000000000000000000000000000000000000000000 "
#447
b110110001000001010110000000000000000000000000000000000000000100 "
#448
b110100001000001010110000000000000000000000000000000000000000100 "
#449
b110100001000001010110000000000000000000000000000000000000000000 "
#451
b110100000000001010110000000000000000000000000000000000000000100 "
#453
b110100000000001010110000000000000000000000000000000000000000000 "
#454
b100100010000001010110000000000000000000000000000000000000000000 "
#455
b100101000000001010110000000000000000000000000000000000000000100 "
#457
b100101000000001010110000000000000000000000000000000000000000000 "
#459
b100101000000001010110000000000000000000000000000000000000000100 "
#461
b100101000000001010110000000000000000000000000000000000000000000 "
#463
b100100000100001010110000000000000000000000000000000000000000100 "
#465
b100100000100001010110000000000000000000000000000000000000000000 "
#467
b100100000000001011000000000000000000000000000000000000000000100 "
#469
b110100100000001011000000000000000000000000000000000000000000000 "
#470
b110110000000001011000000000000000000000000000000000000000000000 "
#471
b110110000000001011000000000000000000000000000000000000000000100 "
#473
b110110000000001011000000000000000000000000000000000000000000000 "
#475
b110110000000001011000000000000000000000000000000000000000000100 "
#477
b110110000000001011000000000000000000000000000000000000000000000 "
#478
b110100000000001011000000000000000000000000000000000000000000000 "
#479
b110100001000001011000000000000000000000000000000000000000000100 "
#481
b110100001000001011000000000000000000000000000000000000000000000 "
#483
b110100000000001011000000000000000000000000000000000000000000100 "
#484
b100100010000001011000000000000000000000000000000000000000000100 "
#485
b100101000000001011000000000000000000000000000000000000000000000 "
#487
b100101000000001011000000000000000000000000000000000000000000100 "
#489
b100101000000001011000000000000000000000000000000000000000000000 "
#491
b100101000100001011000000000000000000000000000000000000000000100 "
#493
b100100000100001011000000000000000000000000000000000000000000000 "
#495
b100100000000001011010000000000000000000000000000000000000000100 "
#497
b100100000000001011010000000000000000000000000000000000000000000 "
#499
b110100100000001011010000000000000000000000000000000000000000100 "
#500
b110110000000001011010000000000000000000000000000000000000000100 "
#501
b110110000000001011010000000000000000000000000000000000000000000 "
#503
b110110000000001011010000000000000000000000000000000000000000100 "
#505
b110110000000001011010000000000000000000000000000000000000000000 "
#507
b110110001000001011010000000000000000000000000000000000000000100 "
#508
b110100001000001011010000000000000000000000000000000000000000100 "
#509
b110100001000001011010000000000000000000000000000000000000000000 "
#511
b110100000000001011010000000000000000000000000000000000000000100 "
#513
b110100000000001011010000000000000000000000000000000000000000000 "
#514
b100100010000001011010000000000000000000000000000000000000000000 "
#515
b100101000000001011010000000000000000000000000000000000000000100 "
#517
b100101000000001011010000000000000000000000000000000000000000000 "
#519
b100101000000001011010000000000000000000000000000000000000000100 "
#521
b100101000000001011010000000000000000000000000000000000000000000 "
#523
b100100000100001011010000000000000000000000000000000000000000100 "
#525
b100100000100001011010000000000000000000000000000000000000000000 "
#527
b100100000000001011100000000000000000000000000000000000000000100 "
#529
b110100100000001011100000000000000000000000000000000000000000000 "
#530
b110110000000001011100000000000000000000000000000000000000000000 "
#531
b110110000000001011100000000000000000000000000000000000000000100 "
#533
b110110000000001011100000000000000000000000000000000000000000000 "
#535
b110110000000001011100000000000000000000000000000000000000000100 "
#537
b110110000000001011100000000000000000000000000000000000000000000 "
#538
b110100000000001011100000000000000000000000000000000000000000000 "
#539
b110100001000001011100000000000000000000000000000000000000000100 "
#541
b110100001000001011100000000000000000000000000000000000000000000 "
#543
b110100000000001011100000000000000000000000000000000000000000100 "
#544
b100100010000001011100000000000000000000000000000000000000000100 "
#545
b100101000000001011100000000000000000000000000000000000000000000 "
#547
b100101000000001011100000000000000000000000000000000000000000100 "
#549
b100101000000001011100000000000000000000000000000000000000000000 "
#551
b100101000100001011100000000000000000000000000000000000000000100 "
#553
b100100000100001011100000000000000000000000000000000000000000000 "
#555
b100100000000001011110000000000000000000000000000000000000000100 "
#557
b100100000000001011110000000000000000000000000000000000000000000 "
#559
b110100100000001011110000000000000000000000000000000000000000100 "
#560
b110110000000001011110000000000000000000000000000000000000000100 "
#561
b110110000000001011110000000000000000000000000000000000000000000 "
#563
b110110000000001011110000000000000000000000000000000000000000100 "
#565
b110110000000001011110000000000000000000000000000000000000000000 "
#567
b110110001000001011110000000000000000000000000000000000000000100 "
#568
b110100001000001011110000000000000000000000000000000000000000100 "
#569
b110100001000001011110000000000000000000000000000000000000000000 "
#571
b110100000000001011110000000000000000000000000000000000000000100 "
#573
b110100000000001011110000000000000000000000000000000000000000000 "
#574
b100100010000001011110000000000000000000000000000000000000000000 "
#575
b100101000000001011110000000000000000000000000000000000000000100 "
#577
b100101000000001011110000000000000000000000000000000000000000000 "
#579
b100101000000001011110000000000000000000000000000000000000000100 "
#581
b100101000000001011110000000000000000000000000000000000000000000 "
#583
b100100000100001011110000000000000000000000000000000000000000100 "
#585
b100100000100001011110000000000000000000000000000000000000000000 "
#587
b100100000000001100000000000000000000000000000000000000000000100 "
#589
b110100100000001100000000000000000000000000000000000000000000000 "
#590
b110110000000001100000000000000000000000000000000000000000000000 "
#591
b110110000000001100000000000000000000000000000000000000000000100 "
#593
b110110000000001100000000000000000000000000000000000000000000000 "
#595
b110110000000001100000000000000000000000000000000000000000000100 "
#597
b110110000000001100000000000000000000000000000000000000000000000 "
#598
b110100000000001100000000000000000000000000000000000000000000000 "
#599
b110100001000001100000000000000000000000000000000000000000000100 "
#601
b110100001000001100000000000000000000000000000000000000000000000 "
#603
b110100000000001100000000000000000000000000000000000000000000100 "
#604
b100100010000001100000000000000000000000000000000000000000000100 "
#605
b100101000000001100000000000000000000000000000000000000000000000 "
#607
b100101000000001100000000000000000000000000000000000000000000100 "
#609
b100101000000001100000000000000000000000000000000000000000000000 "
#611
b100101000100001100000000000000000000000000000000000000000000100 "
#613
b100100000100001100000000000000000000000000000000000000000000000 "
#615
b100100000000001100010000000000000000000000000000000000000000100 "
#617
b100100000000001100010000000000000000000000000000000000000000000 "
#619
b110100100000001100010000000000000000000000000000000000000000100 "
#620
b110110000000001100010000000000000000000000000000000000000000100 "
#621
b110110000000001100010000000000000000000000000000000000000000000 "
#623
b110110000000001100010000000000000000000000000000000000000000100 "
#625
b110110000000001100010000000000000000000000000000000000000000000 "
#627
b110110001000001100010000000000000000000000000000000000000000100 "
#628
b110100001000001100010000000000000000000000000000000000000000100 "
#629
b110100001000001100010000000000000000000000000000000000000000000 "
#631
b110100000000001100010000000000000000000000000000000000000000100 "
#633
b110100000000001100010000000000000000000000000000000000000000000 "
#634
b100100010000001100010000000000000000000000000000000000000000000 "
#635
b100101000000001100010000000000000000000000000000000000000000100 "
#637
b100101000000001100010000000000000000000000000000000000000000000 "
#639
b100101000000001100010000000000000000000000000000000000000000100 "
#641
b100101000000001100010000000000000000000000000000000000000000000 "
#643
b100100000100001100010000000000000000000000000000000000000000100 "
#645
b100100000100001100010000000000000000000000000000000000000000000 "
#647
b100100000000001100100000000000000000000000000000000000000000100 "
#649
b110100100000001100100000000000000000000000000000000000000000000 "
#650
b110110000000001100100000000000000000000000000000000000000000000 "
#651
b110110000000001100100000000000000000000000000000000000000000100 "
#653
b110110000000001100100000000000000000000000000000000000000000000 "
#655
b110110000000001100100000000000000000000000000000000000000000100 "
#657
b110110000000001100100000000000000000000000000000000000000000000 "
#658
b110100000000001100100000000000000000000000000000000000000000000 "
#659
b110100001000001100100000000000000000000000000000000000000000100 "
#661
b110100001000001100100000000000000000000000000000000000000000000 "
#663
b110100000000001100100000000000000000000000000000000000000000100 "
#664
b100100010000001100100000000000000000000000000000000000000000100 "
#665
b100101000000001100100000000000000000000000000000000000000000000 "
#667
b100101000000001100100000000000000000000000000000000000000000100 "
#669
b100101000000001100100000000000000000000000000000000000000000000 "
#671
b100101000100001100100000000000000000000000000000000000000000100 "
#673
b100100000100001100100000000000000000000000000000000000000000000 "
#675
b100100000000001100110000000000000000000000000000000000000000100 "
#677
b100100000000001100110000000000000000000000000000000000000000000 "
#679
b110100100000001100110000000000000000000000000000000000000000100 "
#680
b110110000000001100110000000000000000000000000000000000000000100 "
#681
b110110000000001100110000000000000000000000000000000000000000000 "
#683
b110110000000001100110000000000000000000000000000000000000000100 "
#685
b110110000000001100110000000000000000000000000000000000000000000 "
#687
b110110001000001100110000000000000000000000000000000000000000100 "
#688
b110100001000001100110000000000000000000000000000000000000000100 "
#689
b110100001000001100110000000000000000000000000000000000000000000 "
#691
b110100000000001100110000000000000000000000000000000000000000100 "
#693
b110100000000001100110000000000000000000000000000000000000000000 "
#694
b100100010000001100110000000000000000000000000000000000000000000 "
#695
b100101000000001100110000000000000000000000000000000000000000100 "
#697
b100101000000001100110000000000000000000000000000000000000000000 "
#699
b100101000000001100110000000000000000000000000000000000000000100 "
#701
b100101000000001100110000000000000000000000000000000000000000000 "
#703
b100100000100001100110000000000000000000000000000000000000000100 "
#705
b100100000100001100110000000000000000000000000000000000000000000 "
#707
b100100000000001101000000000000000000000000000000000000000000100 "
#709
b110100100000001101000000000000000000000000000000000000000000000 "
#710
b110110000000001101000000000000000000000000000000000000000000000 "
#711
b110110000000001101000000000000000000000000000000000000000000100 "
#713
b110110000000001101000000000000000000000000000000000000000000000 "
#715
b110110000000001101000000000000000000000000000000000000000000100 "
#717
b110110000000001101000000000000000000000000000000000000000000000 "
#718
b110100000000001101000000000000000000000000000000000000000000000 "
#719
b110100001000001101000000000000000000000000000000000000000000100 "
#721
b110100001000001101000000000000000000000000000000000000000000000 "
#723
b110100000000001101000000000000000000000000000000000000000000100 "
#724
b100100010000001101000000000000000000000000000000000000000000100 "
#725
b100101000000001101000000000000000000000000000000000000000000000 "
#727
b100101000000001101000000000000000000000000000000000000000000100 "
#729
b100101000000001101000000000000000000000000000000000000000000000 "
#731
b100101000100001101000000000000000000000000000000000000000000100 "
#733
b100100000100001101000000000000000000000000000000000000000000000 "
#735
b100100000000001101010000000000000000000000000000000000000000100 "
#737
b100100000000001101010000000000000000000000000000000000000000000 "
#739
b110100100000001101010000000000000000000000000000000000000000100 "
#740
b110110000000001101010000000000000000000000000000000000000000100 "
#741
b110110000000001101010000000000000000000000000000000000000000000 "
#743
b110110000000001101010000000000000000000000000000000000000000100 "
#745
b110110000000001101010000000000000000000000000000000000000000000 "
#747
b110110001000001101010000000000000000000000000000000000000000100 "
#748
b110100001000001101010000000000000000000000000000000000000000100 "
#749
b110100001000001101010000000000000000000000000000000000000000000 "
#751
b110100000000001101010000000000000000000000000000000000000000100 "
#753
b110100000000001101010000000000000000000000000000000000000000000 "
#754
b100100010000001101010000000000000000000000000000000000000000000 "
#755
b100101000000001101010000000000000000000000000000000000000000100 "
#757
b100101000000001101010000000000000000000000000000000000000000000 "
#759
b100101000000001101010000000000000000000000000000000000000000100 "
#761
b100101000000001101010000000000000000000000000000000000000000000 "
#763
b100100000100001101010000000000000000000000000000000000000000100 "
#765
b100100000100001101010000000000000000000000000000000000000000000 "
#767
b100100000000001101100000000000000000000000000000000000000000100 "
#769
b110100100000001101100000000000000000000000000000000000000000000 "
#770
b110110000000001101100000000000000000000000000000000000000000000 "
#771
b110110000000001101100000000000000000000000000000000000000000100 "
#773
b110110000000001101100000000000000000000000000000000000000000000 "
#775
b110110000000001101100000000000000000000000000000000000000000100 "
#777
b110110000000001101100000000000000000000000000000000000000000000 "
#778
b110100000000001101100000000000000000000000000000000000000000000 "
#779
b110100001000001101100000000000000000000000000000000000000000100 "
#781
b110100001000001101100000000000000000000000000000000000000000000 "
#783
b110100000000001101100000000000000000000000000000000000000000100 "
#784
b100100010000001101100000000000000000000000000000000000000000100 "
#785
b100101000000001101100000000000000000000000000000000000000000000 "
#787
b100101000000001101100000000000000000000000000000000000000000100 "
#789
b100101000000001101100000000000000000000000000000000000000000000 "
#791
b100101000100001101100000000000000000000000000000000000000000100 "
#793
b100100000100001101100000000000000000000000000000000000000000000 "
#795
b100100000000001101110000000000000000000000000000000000000000100 "
#797
b100100000000001101110000000000000000000000000000000000000000000 "
#799
b110100100000001101110000000000000000000000000000000000000000100 "
#800
b110110000000001101110000000000000000000000000000000000000000100 "
#801
b110110000000001101110000000000000000000000000000000000000000000 "
#803
b110110000000001101110000000000000000000000000000000000000000100 "
#805
b110110000000001101110000000000000000000000000000000000000000000 "
#807
b110110001000001101110000000000000000000000000000000000000000100 "
#808
b110100001000001101110000000000000000000000000000000000000000100 "
#809
b110100001000001101110000000000000000000000000000000000000000000 "
#811
b110100000000001101110000000000000000000000000000000000000000100 "
#813
b110100000000001101110000000000000000000000000000000000000000000 "
#814
b100100010000001101110000000000000000000000000000000000000000000 "
#815
b100101000000001101110000000000000000000000000000000000000000100 "
#817
b100101000000001101110000000000000000000000000000000000000000000 "
#819
b100101000000001101110000000000000000000000000000000000000000100 "
#821
b100101000000001101110000000000000000000000000000000000000000000 "
#823
b100100000100001101110000000000000000000000000000000000000000100 "
#825
b100100000100001101110000000000000000000000000000000000000000000 "
#827
b100100000000001110000000000000000000000000000000000000000000100 "
#829
b110100100000001110000000000000000000000000000000000000000000000 "
#830
b110110000000001110000000000000000000000000000000000000000000000 "
#831
b110110000000001110000000000000000000000000000000000000000000100 "
#833
b110110000000001110000000000000000000000000000000000000000000000 "
#835
b110110000000001110000000000000000000000000000000000000000000100 "
#837
b110110000000001110000000000000000000000000000000000000000000000 "
#838
b110100000000001110000000000000000000000000000000000000000000000 "
#839
b110100001000001110000000000000000000000000000000000000000000100 "
#841
b110100001000001110000000000000000000000000000000000000000000000 "
#843
b110100000000001110000000000000000000000000000000000000000000100 "
#844
b100100010000001110000000000000000000000000000000000000000000100 "
#845
b100101000000001110000000000000000000000000000000000000000000000 "
#847
b100101000000001110000000000000000000000000000000000000000000100 "
#849
b100101000000001110000000000000000000000000000000000000000000000 "
#851
b100101000100001110000000000000000000000000000000000000000000100 "
#853
b100100000100001110000000000000000000000000000000000000000000000 "
#855
b100100000000001110010000000000000000000000000000000000000000100 "
#857
b100100000000001110010000000000000000000000000000000000000000000 "
#859
b110100100000001110010000000000000000000000000000000000000000100 "
#860
b110110000000001110010000000000000000000000000000000000000000100 "
#861
b110110000000001110010000000000000000000000000000000000000000000 "
#863
b110110000000001110010000000000000000000000000000000000000000100 "
#865
b110110000000001110010000000000000000000000000000000000000000000 "
#867
b110110001000001110010000000000000000000000000000000000000000100 "
#868
b110100001000001110010000000000000000000000000000000000000000100 "
#869
b110100001000001110010000000000000000000000000000000000000000000 "
#871
b110100000000001110010000000000000000000000000000000000000000100 "
#873
b110100000000001110010000000000000000000000000000000000000000000 "
#874
b100100010000001110010000000000000000000000000000000000000000000 "
#875
b100101000000001110010000000000000000000000000000000000000000100 "
