pocketscope_sim/.Xil/Vivado-18212-MOSS550W/hw_ila_data_1/zip_work/waveform.vcd
$date
        2026-Jun-26 19:39:59
$end
$version
        Vivado v2025.1 (64-bit)
$end
$timescale
        1ps
$end
$scope module dut $end
$var reg 64 " u_ila_adc/probe [63:0] $end
$var reg 1 b _TRIGGER $end
$var reg 1 c _WINDOW $end
$var reg 1 d _GAP $end
$upscope $end
$enddefinitions $end
#0
$dumpvars
b100101000011100111000000000000000000000000000000000000000000100 "
0b
1c
0d
$end
#1
b100101000011100111000000000000000000000000000000000000000000000 "
#3
b100101000011100111000000000000000000000000000000000000000000100 "
#5
b100101000011100111000000000000000000000000000000000000000000000 "
#7
b100101000111100111000000000000000000000000000000000000000000100 "
#8
b100100000111100111000000000000000000000000000000000000000000100 "
#9
b100100000111100111000000000000000000000000000000000000000000000 "
#11
b100100000011100111010000000000000000000000000000000000000000100 "
#13
b100100000011100111010000000000000000000000000000000000000000000 "
#14
b110100100011100111010000000000000000000000000000000000000000000 "
#15
b110110000011100111010000000000000000000000000000000000000000100 "
#17
b110110000011100111010000000000000000000000000000000000000000000 "
#19
b110110000011100111010000000000000000000000000000000000000000100 "
#21
b110110000011100111010000000000000000000000000000000000000000000 "
#23
b110100001011100111010000000000000000000000000000000000000000100 "
#25
b110100001011100111010000000000000000000000000000000000000000000 "
#27
b110100000011100111010000000000000000000000000000000000000000100 "
#29
b100100010011100111010000000000000000000000000000000000000000000 "
#30
b100101000011100111010000000000000000000000000000000000000000000 "
#31
b100101000011100111010000000000000000000000000000000000000000100 "
#33
b100101000011100111010000000000000000000000000000000000000000000 "
#35
b100101000011100111010000000000000000000000000000000000000000100 "
#37
b100101000011100111010000000000000000000000000000000000000000000 "
#38
b100100000011100111010000000000000000000000000000000000000000000 "
#39
b100100000111100111010000000000000000000000000000000000000000100 "
#41
b100100000111100111010000000000000000000000000000000000000000000 "
#43
b100100000011100111100000000000000000000000000000000000000000100 "
#44
b110100100011100111100000000000000000000000000000000000000000100 "
#45
b110110000011100111100000000000000000000000000000000000000000000 "
#47
b110110000011100111100000000000000000000000000000000000000000100 "
#49
b110110000011100111100000000000000000000000000000000000000000000 "
#51
b110110001011100111100000000000000000000000000000000000000000100 "
#53
b110100001011100111100000000000000000000000000000000000000000000 "
#55
b110100000011100111100000000000000000000000000000000000000000100 "
#57
b110100000011100111100000000000000000000000000000000000000000000 "
#59
b100100010011100111100000000000000000000000000000000000000000100 "
#60
b100101000011100111100000000000000000000000000000000000000000100 "
#61
b100101000011100111100000000000000000000000000000000000000000000 "
#63
b100101000011100111100000000000000000000000000000000000000000100 "
#65
b100101000011100111100000000000000000000000000000000000000000000 "
#67
b100101000111100111100000000000000000000000000000000000000000100 "
#68
b100100000111100111100000000000000000000000000000000000000000100 "
#69
b100100000111100111100000000000000000000000000000000000000000000 "
#71
b100100000011100111110000000000000000000000000000000000000000100 "
#73
b100100000011100111110000000000000000000000000000000000000000000 "
#74
b110100100011100111110000000000000000000000000000000000000000000 "
#75
b110110000011100111110000000000000000000000000000000000000000100 "
#77
b110110000011100111110000000000000000000000000000000000000000000 "
#79
b110110000011100111110000000000000000000000000000000000000000100 "
#81
b110110000011100111110000000000000000000000000000000000000000000 "
#83
b110100001011100111110000000000000000000000000000000000000000100 "
#85
b110100001011100111110000000000000000000000000000000000000000000 "
#87
b110100000011100111110000000000000000000000000000000000000000100 "
#89
b100100010011100111110000000000000000000000000000000000000000000 "
#90
b100101000011100111110000000000000000000000000000000000000000000 "
#91
b100101000011100111110000000000000000000000000000000000000000100 "
#93
b100101000011100111110000000000000000000000000000000000000000000 "
#95
b100101000011100111110000000000000000000000000000000000000000100 "
#97
b100101000011100111110000000000000000000000000000000000000000000 "
#98
b100100000011100111110000000000000000000000000000000000000000000 "
#99
b100100000111100111110000000000000000000000000000000000000000100 "
#101
b100100000111100111110000000000000000000000000000000000000000000 "
#103
b100100000011101000000000000000000000000000000000000000000000100 "
#104
b110100100011101000000000000000000000000000000000000000000000100 "
#105
b110110000011101000000000000000000000000000000000000000000000000 "
#107
b110110000011101000000000000000000000000000000000000000000000100 "
#109
b110110000011101000000000000000000000000000000000000000000000000 "
#111
b110110001011101000000000000000000000000000000000000000000000100 "
#113
b110100001011101000000000000000000000000000000000000000000000000 "
#115
b110100000011101000000000000000000000000000000000000000000000100 "
#117
b110100000011101000000000000000000000000000000000000000000000000 "
#119
b100100010011101000000000000000000000000000000000000000000000100 "
#120
b100101000011101000000000000000000000000000000000000000000000100 "
#121
b100101000011101000000000000000000000000000000000000000000000000 "
#123
b100101000011101000000000000000000000000000000000000000000000100 "
#125
b100101000011101000000000000000000000000000000000000000000000000 "
#127
b100101000111101000000000000000000000000000000000000000000000100 "
#128
b100100000111101000000000000000000000000000000000000000000000100 "
#129
b100100000111101000000000000000000000000000000000000000000000000 "
#131
b100100000011101000010000000000000000000000000000000000000000100 "
#133
b100100000011101000010000000000000000000000000000000000000000000 "
#134
b110100100011101000010000000000000000000000000000000000000000000 "
#135
b110110000011101000010000000000000000000000000000000000000000100 "
#137
b110110000011101000010000000000000000000000000000000000000000000 "
#139
b110110000011101000010000000000000000000000000000000000000000100 "
#141
b110110000011101000010000000000000000000000000000000000000000000 "
#143
b110100001011101000010000000000000000000000000000000000000000100 "
#145
b110100001011101000010000000000000000000000000000000000000000000 "
#147
b110100000011101000010000000000000000000000000000000000000000100 "
#149
b100100010011101000010000000000000000000000000000000000000000000 "
#150
b100101000011101000010000000000000000000000000000000000000000000 "
#151
b100101000011101000010000000000000000000000000000000000000000100 "
#153
b100101000011101000010000000000000000000000000000000000000000000 "
#155
b100101000011101000010000000000000000000000000000000000000000100 "
#157
b100101000011101000010000000000000000000000000000000000000000000 "
#158
b100100000011101000010000000000000000000000000000000000000000000 "
#159
b100100000111101000010000000000000000000000000000000000000000100 "
#161
b100100000111101000010000000000000000000000000000000000000000000 "
#163
b100100000011101000100000000000000000000000000000000000000000100 "
#164
b110100100011101000100000000000000000000000000000000000000000100 "
#165
b110110000011101000100000000000000000000000000000000000000000000 "
#167
b110110000011101000100000000000000000000000000000000000000000100 "
#169
b110110000011101000100000000000000000000000000000000000000000000 "
#171
b110110001011101000100000000000000000000000000000000000000000100 "
#173
b110100001011101000100000000000000000000000000000000000000000000 "
#175
b110100000011101000100000000000000000000000000000000000000000100 "
#177
b110100000011101000100000000000000000000000000000000000000000000 "
#179
b100100010011101000100000000000000000000000000000000000000000100 "
#180
b100101000011101000100000000000000000000000000000000000000000100 "
#181
b100101000011101000100000000000000000000000000000000000000000000 "
#183
b100101000011101000100000000000000000000000000000000000000000100 "
#185
b100101000011101000100000000000000000000000000000000000000000000 "
#187
b100101000111101000100000000000000000000000000000000000000000100 "
#188
b100100000111101000100000000000000000000000000000000000000000100 "
#189
b100100000111101000100000000000000000000000000000000000000000000 "
#191
b100100000011101000110000000000000000000000000000000000000000100 "
#193
b100100000011101000110000000000000000000000000000000000000000000 "
#194
b110100100011101000110000000000000000000000000000000000000000000 "
#195
b110110000011101000110000000000000000000000000000000000000000100 "
#197
b110110000011101000110000000000000000000000000000000000000000000 "
#199
b110110000011101000110000000000000000000000000000000000000000100 "
#201
b110110000011101000110000000000000000000000000000000000000000000 "
#203
b110100001011101000110000000000000000000000000000000000000000100 "
#205
b110100001011101000110000000000000000000000000000000000000000000 "
#207
b110100000011101000110000000000000000000000000000000000000000100 "
#209
b100100010011101000110000000000000000000000000000000000000000000 "
#210
b100101000011101000110000000000000000000000000000000000000000000 "
#211
b100101000011101000110000000000000000000000000000000000000000100 "
#213
b100101000011101000110000000000000000000000000000000000000000000 "
#215
b100101000011101000110000000000000000000000000000000000000000100 "
#217
b100101000011101000110000000000000000000000000000000000000000000 "
#218
b100100000011101000110000000000000000000000000000000000000000000 "
#219
b100100000111101000110000000000000000000000000000000000000000100 "
#221
b100100000111101000110000000000000000000000000000000000000000000 "
#223
b100100000011101001000000000000000000000000000000000000000000100 "
#224
b110100100011101001000000000000000000000000000000000000000000100 "
#225
b110110000011101001000000000000000000000000000000000000000000000 "
#227
b110110000011101001000000000000000000000000000000000000000000100 "
#229
b110110000011101001000000000000000000000000000000000000000000000 "
#231
b110110001011101001000000000000000000000000000000000000000000100 "
#233
b110100001011101001000000000000000000000000000000000000000000000 "
#235
b110100000011101001000000000000000000000000000000000000000000100 "
#237
b110100000011101001000000000000000000000000000000000000000000000 "
#239
b100100010011101001000000000000000000000000000000000000000000100 "
#240
b100101000011101001000000000000000000000000000000000000000000100 "
#241
b100101000011101001000000000000000000000000000000000000000000000 "
#243
b100101000011101001000000000000000000000000000000000000000000100 "
#245
b100101000011101001000000000000000000000000000000000000000000000 "
#247
b100101000111101001000000000000000000000000000000000000000000100 "
#248
b100100000111101001000000000000000000000000000000000000000000100 "
#249
b100100000111101001000000000000000000000000000000000000000000000 "
#251
b100100000011101001010000000000000000000000000000000000000000100 "
#253
b100100000011101001010000000000000000000000000000000000000000000 "
#254
b110100100011101001010000000000000000000000000000000000000000000 "
#255
b110110000011101001010000000000000000000000000000000000000000100 "
#257
b110110000011101001010000000000000000000000000000000000000000000 "
#259
b110110000011101001010000000000000000000000000000000000000000100 "
#261
b110110000011101001010000000000000000000000000000000000000000000 "
#263
b110100001011101001010000000000000000000000000000000000000000100 "
#265
b110100001011101001010000000000000000000000000000000000000000000 "
#267
b110100000011101001010000000000000000000000000000000000000000100 "
#269
b100100010011101001010000000000000000000000000000000000000000000 "
#270
b100101000011101001010000000000000000000000000000000000000000000 "
#271
b100101000011101001010000000000000000000000000000000000000000100 "
#273
b100101000011101001010000000000000000000000000000000000000000000 "
#275
b100101000011101001010000000000000000000000000000000000000000100 "
#277
b100101000011101001010000000000000000000000000000000000000000000 "
#278
b100100000011101001010000000000000000000000000000000000000000000 "
#279
b100100000111101001010000000000000000000000000000000000000000100 "
#281
b100100000111101001010000000000000000000000000000000000000000000 "
#283
b100100000011101001100000000000000000000000000000000000000000100 "
#284
b110100100011101001100000000000000000000000000000000000000000100 "
#285
b110110000011101001100000000000000000000000000000000000000000000 "
#287
b110110000011101001100000000000000000000000000000000000000000100 "
#289
b110110000011101001100000000000000000000000000000000000000000000 "
#291
b110110001011101001100000000000000000000000000000000000000000100 "
#293
b110100001011101001100000000000000000000000000000000000000000000 "
#295
b110100000011101001100000000000000000000000000000000000000000100 "
#297
b110100000011101001100000000000000000000000000000000000000000000 "
#299
b100100010011101001100000000000000000000000000000000000000000100 "
#300
b100101000011101001100000000000000000000000000000000000000000100 "
#301
b100101000011101001100000000000000000000000000000000000000000000 "
#303
b100101000011101001100000000000000000000000000000000000000000100 "
#305
b100101000011101001100000000000000000000000000000000000000000000 "
#307
b100101000111101001100000000000000000000000000000000000000000100 "
#308
b100100000111101001100000000000000000000000000000000000000000100 "
#309
b100100000111101001100000000000000000000000000000000000000000000 "
#311
b100100000011101001110000000000000000000000000000000000000000100 "
#313
b100100000011101001110000000000000000000000000000000000000000000 "
#314
b110100100011101001110000000000000000000000000000000000000000000 "
#315
b110110000011101001110000000000000000000000000000000000000000100 "
#317
b110110000011101001110000000000000000000000000000000000000000000 "
#319
b110110000011101001110000000000000000000000000000000000000000100 "
#321
b110110000011101001110000000000000000000000000000000000000000000 "
#323
b110100001011101001110000000000000000000000000000000000000000100 "
#325
b110100001011101001110000000000000000000000000000000000000000000 "
#327
b110100000011101001110000000000000000000000000000000000000000100 "
#329
b100100010011101001110000000000000000000000000000000000000000000 "
#330
b100101000011101001110000000000000000000000000000000000000000000 "
#331
b100101000011101001110000000000000000000000000000000000000000100 "
#333
b100101000011101001110000000000000000000000000000000000000000000 "
#335
b100101000011101001110000000000000000000000000000000000000000100 "
#337
b100101000011101001110000000000000000000000000000000000000000000 "
#338
b100100000011101001110000000000000000000000000000000000000000000 "
#339
b100100000111101001110000000000000000000000000000000000000000100 "
#341
b100100000111101001110000000000000000000000000000000000000000000 "
#343
b100100000011101010000000000000000000000000000000000000000000100 "
#344
b110100100011101010000000000000000000000000000000000000000000100 "
#345
b110110000011101010000000000000000000000000000000000000000000000 "
#347
b110110000011101010000000000000000000000000000000000000000000100 "
#349
b110110000011101010000000000000000000000000000000000000000000000 "
#351
b110110001011101010000000000000000000000000000000000000000000100 "
#353
b110100001011101010000000000000000000000000000000000000000000000 "
#355
b110100000011101010000000000000000000000000000000000000000000100 "
#357
b110100000011101010000000000000000000000000000000000000000000000 "
#359
b100100010011101010000000000000000000000000000000000000000000100 "
#360
b100101000011101010000000000000000000000000000000000000000000100 "
#361
b100101000011101010000000000000000000000000000000000000000000000 "
#363
b100101000011101010000000000000000000000000000000000000000000100 "
#365
b100101000011101010000000000000000000000000000000000000000000000 "
#367
b100101000111101010000000000000000000000000000000000000000000100 "
#368
b100100000111101010000000000000000000000000000000000000000000100 "
#369
b100100000111101010000000000000000000000000000000000000000000000 "
#371
b100100000011101010010000000000000000000000000000000000000000100 "
#373
b100100000011101010010000000000000000000000000000000000000000000 "
#374
b110100100011101010010000000000000000000000000000000000000000000 "
#375
b110110000011101010010000000000000000000000000000000000000000100 "
#377
b110110000011101010010000000000000000000000000000000000000000000 "
#379
b110110000011101010010000000000000000000000000000000000000000100 "
#381
b110110000011101010010000000000000000000000000000000000000000000 "
#383
b110100001011101010010000000000000000000000000000000000000000100 "
#385
b110100001011101010010000000000000000000000000000000000000000000 "
#387
b110100000011101010010000000000000000000000000000000000000000100 "
#389
b100100010011101010010000000000000000000000000000000000000000000 "
#390
b100101000011101010010000000000000000000000000000000000000000000 "
#391
b100101000011101010010000000000000000000000000000000000000000100 "
#393
b100101000011101010010000000000000000000000000000000000000000000 "
#395
b100101000011101010010000000000000000000000000000000000000000100 "
#397
b100101000011101010010000000000000000000000000000000000000000000 "
#398
b100100000011101010010000000000000000000000000000000000000000000 "
#399
b100100000111101010010000000000000000000000000000000000000000100 "
#401
b100100000111101010010000000000000000000000000000000000000000000 "
#403
b100100000011101010100000000000000000000000000000000000000000100 "
#404
b110100100011101010100000000000000000000000000000000000000000100 "
#405
b110110000011101010100000000000000000000000000000000000000000000 "
#407
b110110000011101010100000000000000000000000000000000000000000100 "
#409
b110110000011101010100000000000000000000000000000000000000000000 "
#411
b110110001011101010100000000000000000000000000000000000000000100 "
#413
b110100001011101010100000000000000000000000000000000000000000000 "
#415
b110100000011101010100000000000000000000000000000000000000000100 "
#417
b110100000011101010100000000000000000000000000000000000000000000 "
#419
b100100010011101010100000000000000000000000000000000000000000100 "
#420
b100101000011101010100000000000000000000000000000000000000000100 "
#421
b100101000011101010100000000000000000000000000000000000000000000 "
#423
b100101000011101010100000000000000000000000000000000000000000100 "
#425
b100101000011101010100000000000000000000000000000000000000000000 "
#427
b100101000111101010100000000000000000000000000000000000000000100 "
#428
b100100000111101010100000000000000000000000000000000000000000100 "
#429
b100100000111101010100000000000000000000000000000000000000000000 "
#431
b100100000011101010110000000000000000000000000000000000000000100 "
#433
b100100000011101010110000000000000000000000000000000000000000000 "
#434
b110100100011101010110000000000000000000000000000000000000000000 "
#435
b110110000011101010110000000000000000000000000000000000000000100 "
#437
b110110000011101010110000000000000000000000000000000000000000000 "
#439
b110110000011101010110000000000000000000000000000000000000000100 "
#441
b110110000011101010110000000000000000000000000000000000000000000 "
#443
b110100001011101010110000000000000000000000000000000000000000100 "
#445
b110100001011101010110000000000000000000000000000000000000000000 "
#447
b110100000011101010110000000000000000000000000000000000000000100 "
#449
b100100010011101010110000000000000000000000000000000000000000000 "
#450
b100101000011101010110000000000000000000000000000000000000000000 "
#451
b100101000011101010110000000000000000000000000000000000000000100 "
#453
b100101000011101010110000000000000000000000000000000000000000000 "
#455
b100101000011101010110000000000000000000000000000000000000000100 "
#457
b100101000011101010110000000000000000000000000000000000000000000 "
#458
b100100000011101010110000000000000000000000000000000000000000000 "
#459
b100100000111101010110000000000000000000000000000000000000000100 "
#461
b100100000111101010110000000000000000000000000000000000000000000 "
#463
b100100000011101011000000000000000000000000000000000000000000100 "
#464
b110100100011101011000000000000000000000000000000000000000000100 "
#465
b110110000011101011000000000000000000000000000000000000000000000 "
#467
b110110000011101011000000000000000000000000000000000000000000100 "
#469
b110110000011101011000000000000000000000000000000000000000000000 "
#471
b110110001011101011000000000000000000000000000000000000000000100 "
#473
b110100001011101011000000000000000000000000000000000000000000000 "
#475
b110100000011101011000000000000000000000000000000000000000000100 "
#477
b110100000011101011000000000000000000000000000000000000000000000 "
#479
b100100010011101011000000000000000000000000000000000000000000100 "
#480
b100101000011101011000000000000000000000000000000000000000000100 "
#481
b100101000011101011000000000000000000000000000000000000000000000 "
#483
b100101000011101011000000000000000000000000000000000000000000100 "
#485
b100101000011101011000000000000000000000000000000000000000000000 "
#487
b100101000111101011000000000000000000000000000000000000000000100 "
#488
b100100000111101011000000000000000000000000000000000000000000100 "
#489
b100100000111101011000000000000000000000000000000000000000000000 "
#491
b100100000011101011010000000000000000000000000000000000000000100 "
#493
b100100000011101011010000000000000000000000000000000000000000000 "
#494
b110100100011101011010000000000000000000000000000000000000000000 "
#495
b110110000011101011010000000000000000000000000000000000000000100 "
#497
b110110000011101011010000000000000000000000000000000000000000000 "
#499
b110110000011101011010000000000000000000000000000000000000000100 "
#501
b110110000011101011010000000000000000000000000000000000000000000 "
#503
b110100001011101011010000000000000000000000000000000000000000100 "
#505
b110100001011101011010000000000000000000000000000000000000000000 "
#507
b110100000011101011010000000000000000000000000000000000000000100 "
#509
b100100010011101011010000000000000000000000000000000000000000000 "
#510
b100101000011101011010000000000000000000000000000000000000000000 "
#511
b100101000011101011010000000000000000000000000000000000000000100 "
#513
b100101000011101011010000000000000000000000000000000000000000000 "
#515
b100101000011101011010000000000000000000000000000000000000000100 "
#517
b100101000011101011010000000000000000000000000000000000000000000 "
#518
b100100000011101011010000000000000000000000000000000000000000000 "
#519
b100100000111101011010000000000000000000000000000000000000000100 "
#521
b100100000111101011010000000000000000000000000000000000000000000 "
#523
b100100000011101011100000000000000000000000000000000000000000100 "
#524
b110100100011101011100000000000000000000000000000000000000000100 "
#525
b110110000011101011100000000000000000000000000000000000000000000 "
#527
b110110000011101011100000000000000000000000000000000000000000100 "
#529
b110110000011101011100000000000000000000000000000000000000000000 "
#531
b110110001011101011100000000000000000000000000000000000000000100 "
#533
b110100001011101011100000000000000000000000000000000000000000000 "
#535
b110100000011101011100000000000000000000000000000000000000000100 "
#537
b110100000011101011100000000000000000000000000000000000000000000 "
#539
b100100010011101011100000000000000000000000000000000000000000100 "
#540
b100101000011101011100000000000000000000000000000000000000000100 "
#541
b100101000011101011100000000000000000000000000000000000000000000 "
#543
b100101000011101011100000000000000000000000000000000000000000100 "
#545
b100101000011101011100000000000000000000000000000000000000000000 "
#547
b100101000111101011100000000000000000000000000000000000000000100 "
#548
b100100000111101011100000000000000000000000000000000000000000100 "
#549
b100100000111101011100000000000000000000000000000000000000000000 "
#551
b100100000011101011110000000000000000000000000000000000000000100 "
#553
b100100000011101011110000000000000000000000000000000000000000000 "
#554
b110100100011101011110000000000000000000000000000000000000000000 "
#555
b110110000011101011110000000000000000000000000000000000000000100 "
#557
b110110000011101011110000000000000000000000000000000000000000000 "
#559
b110110000011101011110000000000000000000000000000000000000000100 "
#561
b110110000011101011110000000000000000000000000000000000000000000 "
#563
b110100001011101011110000000000000000000000000000000000000000100 "
#565
b110100001011101011110000000000000000000000000000000000000000000 "
#567
b110100000011101011110000000000000000000000000000000000000000100 "
#569
b100100010011101011110000000000000000000000000000000000000000000 "
#570
b100101000011101011110000000000000000000000000000000000000000000 "
#571
b100101000011101011110000000000000000000000000000000000000000100 "
#573
b100101000011101011110000000000000000000000000000000000000000000 "
#575
b100101000011101011110000000000000000000000000000000000000000100 "
#577
b100101000011101011110000000000000000000000000000000000000000000 "
#578
b100100000011101011110000000000000000000000000000000000000000000 "
#579
b100100000111101011110000000000000000000000000000000000000000100 "
#581
b100100000111101011110000000000000000000000000000000000000000000 "
#583
b100100000011101100000000000000000000000000000000000000000000100 "
#584
b110100100011101100000000000000000000000000000000000000000000100 "
#585
b110110000011101100000000000000000000000000000000000000000000000 "
#587
b110110000011101100000000000000000000000000000000000000000000100 "
#589
b110110000011101100000000000000000000000000000000000000000000000 "
#591
b110110001011101100000000000000000000000000000000000000000000100 "
#593
b110100001011101100000000000000000000000000000000000000000000000 "
#595
b110100000011101100000000000000000000000000000000000000000000100 "
#597
b110100000011101100000000000000000000000000000000000000000000000 "
#599
b100100010011101100000000000000000000000000000000000000000000100 "
#600
b100101000011101100000000000000000000000000000000000000000000100 "
#601
b100101000011101100000000000000000000000000000000000000000000000 "
#603
b100101000011101100000000000000000000000000000000000000000000100 "
#605
b100101000011101100000000000000000000000000000000000000000000000 "
#607
b100101000111101100000000000000000000000000000000000000000000100 "
#608
b100100000111101100000000000000000000000000000000000000000000100 "
#609
b100100000111101100000000000000000000000000000000000000000000000 "
#611
b100100000011101100010000000000000000000000000000000000000000100 "
#613
b100100000011101100010000000000000000000000000000000000000000000 "
#614
b110100100011101100010000000000000000000000000000000000000000000 "
#615
b110110000011101100010000000000000000000000000000000000000000100 "
#617
b110110000011101100010000000000000000000000000000000000000000000 "
#619
b110110000011101100010000000000000000000000000000000000000000100 "
#621
b110110000011101100010000000000000000000000000000000000000000000 "
#623
b110100001011101100010000000000000000000000000000000000000000100 "
#625
b110100001011101100010000000000000000000000000000000000000000000 "
#627
b110100000011101100010000000000000000000000000000000000000000100 "
#629
b100100010011101100010000000000000000000000000000000000000000000 "
#630
b100101000011101100010000000000000000000000000000000000000000000 "
#631
b100101000011101100010000000000000000000000000000000000000000100 "
#633
b100101000011101100010000000000000000000000000000000000000000000 "
#635
b100101000011101100010000000000000000000000000000000000000000100 "
#637
b100101000011101100010000000000000000000000000000000000000000000 "
#638
b100100000011101100010000000000000000000000000000000000000000000 "
#639
b100100000111101100010000000000000000000000000000000000000000100 "
#641
b100100000111101100010000000000000000000000000000000000000000000 "
#643
b100100000011101100100000000000000000000000000000000000000000100 "
#644
b110100100011101100100000000000000000000000000000000000000000100 "
#645
b110110000011101100100000000000000000000000000000000000000000000 "
#647
b110110000011101100100000000000000000000000000000000000000000100 "
#649
b110110000011101100100000000000000000000000000000000000000000000 "
#651
b110110001011101100100000000000000000000000000000000000000000100 "
#653
b110100001011101100100000000000000000000000000000000000000000000 "
#655
b110100000011101100100000000000000000000000000000000000000000100 "
#657
b110100000011101100100000000000000000000000000000000000000000000 "
#659
b100100010011101100100000000000000000000000000000000000000000100 "
#660
b100101000011101100100000000000000000000000000000000000000000100 "
#661
b100101000011101100100000000000000000000000000000000000000000000 "
#663
b100101000011101100100000000000000000000000000000000000000000100 "
#665
b100101000011101100100000000000000000000000000000000000000000000 "
#667
b100101000111101100100000000000000000000000000000000000000000100 "
#668
b100100000111101100100000000000000000000000000000000000000000100 "
#669
b100100000111101100100000000000000000000000000000000000000000000 "
#671
b100100000011101100110000000000000000000000000000000000000000100 "
#673
b100100000011101100110000000000000000000000000000000000000000000 "
#674
b110100100011101100110000000000000000000000000000000000000000000 "
#675
b110110000011101100110000000000000000000000000000000000000000100 "
#677
b110110000011101100110000000000000000000000000000000000000000000 "
#679
b110110000011101100110000000000000000000000000000000000000000100 "
#681
b110110000011101100110000000000000000000000000000000000000000000 "
#683
b110100001011101100110000000000000000000000000000000000000000100 "
#685
b110100001011101100110000000000000000000000000000000000000000000 "
#687
b110100000011101100110000000000000000000000000000000000000000100 "
#689
b100100010011101100110000000000000000000000000000000000000000000 "
#690
b100101000011101100110000000000000000000000000000000000000000000 "
#691
b100101000011101100110000000000000000000000000000000000000000100 "
#693
b100101000011101100110000000000000000000000000000000000000000000 "
#695
b100101000011101100110000000000000000000000000000000000000000100 "
#697
b100101000011101100110000000000000000000000000000000000000000000 "
#698
b100100000011101100110000000000000000000000000000000000000000000 "
#699
b100100000111101100110000000000000000000000000000000000000000100 "
#701
b100100000111101100110000000000000000000000000000000000000000000 "
#703
b100100000011101101000000000000000000000000000000000000000000100 "
#704
b110100100011101101000000000000000000000000000000000000000000100 "
#705
b110110000011101101000000000000000000000000000000000000000000000 "
#707
b110110000011101101000000000000000000000000000000000000000000100 "
#709
b110110000011101101000000000000000000000000000000000000000000000 "
#711
b110110001011101101000000000000000000000000000000000000000000100 "
#713
b110100001011101101000000000000000000000000000000000000000000000 "
#715
b110100000011101101000000000000000000000000000000000000000000100 "
#717
b110100000011101101000000000000000000000000000000000000000000000 "
#719
b100100010011101101000000000000000000000000000000000000000000100 "
#720
b100101000011101101000000000000000000000000000000000000000000100 "
#721
b100101000011101101000000000000000000000000000000000000000000000 "
#723
b100101000011101101000000000000000000000000000000000000000000100 "
#725
b100101000011101101000000000000000000000000000000000000000000000 "
#727
b100101000111101101000000000000000000000000000000000000000000100 "
#728
b100100000111101101000000000000000000000000000000000000000000100 "
#729
b100100000111101101000000000000000000000000000000000000000000000 "
#731
b100100000011101101010000000000000000000000000000000000000000100 "
#733
b100100000011101101010000000000000000000000000000000000000000000 "
#734
b110100100011101101010000000000000000000000000000000000000000000 "
#735
b110110000011101101010000000000000000000000000000000000000000100 "
#737
b110110000011101101010000000000000000000000000000000000000000000 "
#739
b110110000011101101010000000000000000000000000000000000000000100 "
#741
b110110000011101101010000000000000000000000000000000000000000000 "
#743
b110100001011101101010000000000000000000000000000000000000000100 "
#745
b110100001011101101010000000000000000000000000000000000000000000 "
#747
b110100000011101101010000000000000000000000000000000000000000100 "
#749
b100100010011101101010000000000000000000000000000000000000000000 "
#750
b100101000011101101010000000000000000000000000000000000000000000 "
#751
b100101000011101101010000000000000000000000000000000000000000100 "
#753
b100101000011101101010000000000000000000000000000000000000000000 "
#755
b100101000011101101010000000000000000000000000000000000000000100 "
#757
b100101000011101101010000000000000000000000000000000000000000000 "
#758
b100100000011101101010000000000000000000000000000000000000000000 "
#759
b100100000111101101010000000000000000000000000000000000000000100 "
#761
b100100000111101101010000000000000000000000000000000000000000000 "
#763
b100100000011101101100000000000000000000000000000000000000000100 "
#764
b110100100011101101100000000000000000000000000000000000000000100 "
#765
b110110000011101101100000000000000000000000000000000000000000000 "
#767
b110110000011101101100000000000000000000000000000000000000000100 "
#769
b110110000011101101100000000000000000000000000000000000000000000 "
#771
b110110001011101101100000000000000000000000000000000000000000100 "
#773
b110100001011101101100000000000000000000000000000000000000000000 "
#775
b110100000011101101100000000000000000000000000000000000000000100 "
#777
b110100000011101101100000000000000000000000000000000000000000000 "
#779
b100100010011101101100000000000000000000000000000000000000000100 "
#780
b100101000011101101100000000000000000000000000000000000000000100 "
#781
b100101000011101101100000000000000000000000000000000000000000000 "
#783
b100101000011101101100000000000000000000000000000000000000000100 "
#785
b100101000011101101100000000000000000000000000000000000000000000 "
#787
b100101000111101101100000000000000000000000000000000000000000100 "
#788
b100100000111101101100000000000000000000000000000000000000000100 "
#789
b100100000111101101100000000000000000000000000000000000000000000 "
#791
b100100000011101101110000000000000000000000000000000000000000100 "
#793
b100100000011101101110000000000000000000000000000000000000000000 "
#794
b110100100011101101110000000000000000000000000000000000000000000 "
#795
b110110000011101101110000000000000000000000000000000000000000100 "
#797
b110110000011101101110000000000000000000000000000000000000000000 "
#799
b110110000011101101110000000000000000000000000000000000000000100 "
#801
b110110000011101101110000000000000000000000000000000000000000000 "
#803
b110100001011101101110000000000000000000000000000000000000000100 "
#805
b110100001011101101110000000000000000000000000000000000000000000 "
#807
b110100000011101101110000000000000000000000000000000000000000100 "
#809
b100100010011101101110000000000000000000000000000000000000000000 "
#810
b100101000011101101110000000000000000000000000000000000000000000 "
#811
b100101000011101101110000000000000000000000000000000000000000100 "
#813
b100101000011101101110000000000000000000000000000000000000000000 "
#815
b100101000011101101110000000000000000000000000000000000000000100 "
#817
b100101000011101101110000000000000000000000000000000000000000000 "
#818
b100100000011101101110000000000000000000000000000000000000000000 "
#819
b100100000111101101110000000000000000000000000000000000000000100 "
#821
b100100000111101101110000000000000000000000000000000000000000000 "
#823
b100100000011101110000000000000000000000000000000000000000000100 "
#824
b110100100011101110000000000000000000000000000000000000000000100 "
#825
b110110000011101110000000000000000000000000000000000000000000000 "
#827
b110110000011101110000000000000000000000000000000000000000000100 "
#829
b110110000011101110000000000000000000000000000000000000000000000 "
#831
b110110001011101110000000000000000000000000000000000000000000100 "
#833
b110100001011101110000000000000000000000000000000000000000000000 "
#835
b110100000011101110000000000000000000000000000000000000000000100 "
#837
b110100000011101110000000000000000000000000000000000000000000000 "
#839
b100100010011101110000000000000000000000000000000000000000000100 "
#840
b100101000011101110000000000000000000000000000000000000000000100 "
#841
b100101000011101110000000000000000000000000000000000000000000000 "
#843
b100101000011101110000000000000000000000000000000000000000000100 "
#845
b100101000011101110000000000000000000000000000000000000000000000 "
#847
b100101000111101110000000000000000000000000000000000000000000100 "
#848
b100100000111101110000000000000000000000000000000000000000000100 "
#849
b100100000111101110000000000000000000000000000000000000000000000 "
#851
b100100000011101110010000000000000000000000000000000000000000100 "
#853
b100100000011101110010000000000000000000000000000000000000000000 "
#854
b110100100011101110010000000000000000000000000000000000000000000 "
#855
b110110000011101110010000000000000000000000000000000000000000100 "
#857
b110110000011101110010000000000000000000000000000000000000000000 "
#859
b110110000011101110010000000000000000000000000000000000000000100 "
#861
b110110000011101110010000000000000000000000000000000000000000000 "
#863
b110100001011101110010000000000000000000000000000000000000000100 "
#865
b110100001011101110010000000000000000000000000000000000000000000 "
#867
b110100000011101110010000000000000000000000000000000000000000100 "
#869
b100100010011101110010000000000000000000000000000000000000000000 "
#870
b100101000011101110010000000000000000000000000000000000000000000 "
#871
b100101000011101110010000000000000000000000000000000000000000100 "
#873
b100101000011101110010000000000000000000000000000000000000000000 "
#875
b100101000011101110010000000000000000000000000000000000000000100 "
#877
b100101000011101110010000000000000000000000000000000000000000000 "
