pocketscope_sim/.Xil/Vivado-18212-MOSS550W/hw_ila_data_1/zip_work/waveform.vcd
$date
        2026-Jun-26 19:06:53
$end
$version
        Vivado v2025.1 (64-bit)
$end
$timescale
        1ps
$end
$scope module dut $end
$var reg 64 " u_ila_adc/probe [63:0] $end
$var reg 1 b _TRIGGER $end
$var reg 1 c _WINDOW $end
$var reg 1 d _GAP $end
$upscope $end
$enddefinitions $end
#0
$dumpvars
b110100000010001010000000000000000000000000000000000000000000000 "
0b
1c
0d
$end
#2
b100100010010001010000000000000000000000000000000000000000000100 "
#3
b100101000010001010000000000000000000000000000000000000000000100 "
#4
b100101000010001010000000000000000000000000000000000000000000000 "
#6
b100101000010001010000000000000000000000000000000000000000000100 "
#8
b100101000010001010000000000000000000000000000000000000000000000 "
#10
b100101000110001010000000000000000000000000000000000000000000100 "
#11
b100100000110001010000000000000000000000000000000000000000000100 "
#12
b100100000110001010000000000000000000000000000000000000000000000 "
#14
b100100000010001010010000000000000000000000000000000000000000100 "
#16
b100100000010001010010000000000000000000000000000000000000000000 "
#17
b110100100010001010010000000000000000000000000000000000000000000 "
#18
b110110000010001010010000000000000000000000000000000000000000100 "
#20
b110110000010001010010000000000000000000000000000000000000000000 "
#22
b110110000010001010010000000000000000000000000000000000000000100 "
#24
b110110000010001010010000000000000000000000000000000000000000000 "
#26
b110100001010001010010000000000000000000000000000000000000000100 "
#28
b110100001010001010010000000000000000000000000000000000000000000 "
#30
b110100000010001010010000000000000000000000000000000000000000100 "
#32
b100100010010001010010000000000000000000000000000000000000000000 "
#33
b100101000010001010010000000000000000000000000000000000000000000 "
#34
b100101000010001010010000000000000000000000000000000000000000100 "
#36
b100101000010001010010000000000000000000000000000000000000000000 "
#38
b100101000010001010010000000000000000000000000000000000000000100 "
#40
b100101000010001010010000000000000000000000000000000000000000000 "
#41
b100100000010001010010000000000000000000000000000000000000000000 "
#42
b100100000110001010010000000000000000000000000000000000000000100 "
#44
b100100000110001010010000000000000000000000000000000000000000000 "
#46
b100100000010001010100000000000000000000000000000000000000000100 "
#47
b110100100010001010100000000000000000000000000000000000000000100 "
#48
b110110000010001010100000000000000000000000000000000000000000000 "
#50
b110110000010001010100000000000000000000000000000000000000000100 "
#52
b110110000010001010100000000000000000000000000000000000000000000 "
#54
b110110001010001010100000000000000000000000000000000000000000100 "
#56
b110100001010001010100000000000000000000000000000000000000000000 "
#58
b110100000010001010100000000000000000000000000000000000000000100 "
#60
b110100000010001010100000000000000000000000000000000000000000000 "
#62
b100100010010001010100000000000000000000000000000000000000000100 "
#63
b100101000010001010100000000000000000000000000000000000000000100 "
#64
b100101000010001010100000000000000000000000000000000000000000000 "
#66
b100101000010001010100000000000000000000000000000000000000000100 "
#68
b100101000010001010100000000000000000000000000000000000000000000 "
#70
b100101000110001010100000000000000000000000000000000000000000100 "
#71
b100100000110001010100000000000000000000000000000000000000000100 "
#72
b100100000110001010100000000000000000000000000000000000000000000 "
#74
b100100000010001010110000000000000000000000000000000000000000100 "
#76
b100100000010001010110000000000000000000000000000000000000000000 "
#77
b110100100010001010110000000000000000000000000000000000000000000 "
#78
b110110000010001010110000000000000000000000000000000000000000100 "
#80
b110110000010001010110000000000000000000000000000000000000000000 "
#82
b110110000010001010110000000000000000000000000000000000000000100 "
#84
b110110000010001010110000000000000000000000000000000000000000000 "
#86
b110100001010001010110000000000000000000000000000000000000000100 "
#88
b110100001010001010110000000000000000000000000000000000000000000 "
#90
b110100000010001010110000000000000000000000000000000000000000100 "
#92
b100100010010001010110000000000000000000000000000000000000000000 "
#93
b100101000010001010110000000000000000000000000000000000000000000 "
#94
b100101000010001010110000000000000000000000000000000000000000100 "
#96
b100101000010001010110000000000000000000000000000000000000000000 "
#98
b100101000010001010110000000000000000000000000000000000000000100 "
#100
b100101000010001010110000000000000000000000000000000000000000000 "
#101
b100100000010001010110000000000000000000000000000000000000000000 "
#102
b100100000110001010110000000000000000000000000000000000000000100 "
#104
b100100000110001010110000000000000000000000000000000000000000000 "
#106
b100100000010001011000000000000000000000000000000000000000000100 "
#107
b110100100010001011000000000000000000000000000000000000000000100 "
#108
b110110000010001011000000000000000000000000000000000000000000000 "
#110
b110110000010001011000000000000000000000000000000000000000000100 "
#112
b110110000010001011000000000000000000000000000000000000000000000 "
#114
b110110001010001011000000000000000000000000000000000000000000100 "
#116
b110100001010001011000000000000000000000000000000000000000000000 "
#118
b110100000010001011000000000000000000000000000000000000000000100 "
#120
b110100000010001011000000000000000000000000000000000000000000000 "
#122
b100100010010001011000000000000000000000000000000000000000000100 "
#123
b100101000010001011000000000000000000000000000000000000000000100 "
#124
b100101000010001011000000000000000000000000000000000000000000000 "
#126
b100101000010001011000000000000000000000000000000000000000000100 "
#128
b100101000010001011000000000000000000000000000000000000000000000 "
#130
b100101000110001011000000000000000000000000000000000000000000100 "
#131
b100100000110001011000000000000000000000000000000000000000000100 "
#132
b100100000110001011000000000000000000000000000000000000000000000 "
#134
b100100000010001011010000000000000000000000000000000000000000100 "
#136
b100100000010001011010000000000000000000000000000000000000000000 "
#137
b110100100010001011010000000000000000000000000000000000000000000 "
#138
b110110000010001011010000000000000000000000000000000000000000100 "
#140
b110110000010001011010000000000000000000000000000000000000000000 "
#142
b110110000010001011010000000000000000000000000000000000000000100 "
#144
b110110000010001011010000000000000000000000000000000000000000000 "
#146
b110100001010001011010000000000000000000000000000000000000000100 "
#148
b110100001010001011010000000000000000000000000000000000000000000 "
#150
b110100000010001011010000000000000000000000000000000000000000100 "
#152
b100100010010001011010000000000000000000000000000000000000000000 "
#153
b100101000010001011010000000000000000000000000000000000000000000 "
#154
b100101000010001011010000000000000000000000000000000000000000100 "
#156
b100101000010001011010000000000000000000000000000000000000000000 "
#158
b100101000010001011010000000000000000000000000000000000000000100 "
#160
b100101000010001011010000000000000000000000000000000000000000000 "
#161
b100100000010001011010000000000000000000000000000000000000000000 "
#162
b100100000110001011010000000000000000000000000000000000000000100 "
#164
b100100000110001011010000000000000000000000000000000000000000000 "
#166
b100100000010001011100000000000000000000000000000000000000000100 "
#167
b110100100010001011100000000000000000000000000000000000000000100 "
#168
b110110000010001011100000000000000000000000000000000000000000000 "
#170
b110110000010001011100000000000000000000000000000000000000000100 "
#172
b110110000010001011100000000000000000000000000000000000000000000 "
#174
b110110001010001011100000000000000000000000000000000000000000100 "
#176
b110100001010001011100000000000000000000000000000000000000000000 "
#178
b110100000010001011100000000000000000000000000000000000000000100 "
#180
b110100000010001011100000000000000000000000000000000000000000000 "
#182
b100100010010001011100000000000000000000000000000000000000000100 "
#183
b100101000010001011100000000000000000000000000000000000000000100 "
#184
b100101000010001011100000000000000000000000000000000000000000000 "
#186
b100101000010001011100000000000000000000000000000000000000000100 "
#188
b100101000010001011100000000000000000000000000000000000000000000 "
#190
b100101000110001011100000000000000000000000000000000000000000100 "
#191
b100100000110001011100000000000000000000000000000000000000000100 "
#192
b100100000110001011100000000000000000000000000000000000000000000 "
#194
b100100000010001011110000000000000000000000000000000000000000100 "
#196
b100100000010001011110000000000000000000000000000000000000000000 "
#197
b110100100010001011110000000000000000000000000000000000000000000 "
#198
b110110000010001011110000000000000000000000000000000000000000100 "
#200
b110110000010001011110000000000000000000000000000000000000000000 "
#202
b110110000010001011110000000000000000000000000000000000000000100 "
#204
b110110000010001011110000000000000000000000000000000000000000000 "
#206
b110100001010001011110000000000000000000000000000000000000000100 "
#208
b110100001010001011110000000000000000000000000000000000000000000 "
#210
b110100000010001011110000000000000000000000000000000000000000100 "
#212
b100100010010001011110000000000000000000000000000000000000000000 "
#213
b100101000010001011110000000000000000000000000000000000000000000 "
#214
b100101000010001011110000000000000000000000000000000000000000100 "
#216
b100101000010001011110000000000000000000000000000000000000000000 "
#218
b100101000010001011110000000000000000000000000000000000000000100 "
#220
b100101000010001011110000000000000000000000000000000000000000000 "
#221
b100100000010001011110000000000000000000000000000000000000000000 "
#222
b100100000110001011110000000000000000000000000000000000000000100 "
#224
b100100000110001011110000000000000000000000000000000000000000000 "
#226
b100100000010001100000000000000000000000000000000000000000000100 "
#227
b110100100010001100000000000000000000000000000000000000000000100 "
#228
b110110000010001100000000000000000000000000000000000000000000000 "
#230
b110110000010001100000000000000000000000000000000000000000000100 "
#232
b110110000010001100000000000000000000000000000000000000000000000 "
#234
b110110001010001100000000000000000000000000000000000000000000100 "
#236
b110100001010001100000000000000000000000000000000000000000000000 "
#238
b110100000010001100000000000000000000000000000000000000000000100 "
#240
b110100000010001100000000000000000000000000000000000000000000000 "
#242
b100100010010001100000000000000000000000000000000000000000000100 "
#243
b100101000010001100000000000000000000000000000000000000000000100 "
#244
b100101000010001100000000000000000000000000000000000000000000000 "
#246
b100101000010001100000000000000000000000000000000000000000000100 "
#248
b100101000010001100000000000000000000000000000000000000000000000 "
#250
b100101000110001100000000000000000000000000000000000000000000100 "
#251
b100100000110001100000000000000000000000000000000000000000000100 "
#252
b100100000110001100000000000000000000000000000000000000000000000 "
#254
b100100000010001100010000000000000000000000000000000000000000100 "
#256
b100100000010001100010000000000000000000000000000000000000000000 "
#257
b110100100010001100010000000000000000000000000000000000000000000 "
#258
b110110000010001100010000000000000000000000000000000000000000100 "
#260
b110110000010001100010000000000000000000000000000000000000000000 "
#262
b110110000010001100010000000000000000000000000000000000000000100 "
#264
b110110000010001100010000000000000000000000000000000000000000000 "
#266
b110100001010001100010000000000000000000000000000000000000000100 "
#268
b110100001010001100010000000000000000000000000000000000000000000 "
#270
b110100000010001100010000000000000000000000000000000000000000100 "
#272
b100100010010001100010000000000000000000000000000000000000000000 "
#273
b100101000010001100010000000000000000000000000000000000000000000 "
#274
b100101000010001100010000000000000000000000000000000000000000100 "
#276
b100101000010001100010000000000000000000000000000000000000000000 "
#278
b100101000010001100010000000000000000000000000000000000000000100 "
#280
b100101000010001100010000000000000000000000000000000000000000000 "
#281
b100100000010001100010000000000000000000000000000000000000000000 "
#282
b100100000110001100010000000000000000000000000000000000000000100 "
#284
b100100000110001100010000000000000000000000000000000000000000000 "
#286
b100100000010001100100000000000000000000000000000000000000000100 "
#287
b110100100010001100100000000000000000000000000000000000000000100 "
#288
b110110000010001100100000000000000000000000000000000000000000000 "
#290
b110110000010001100100000000000000000000000000000000000000000100 "
#292
b110110000010001100100000000000000000000000000000000000000000000 "
#294
b110110001010001100100000000000000000000000000000000000000000100 "
#296
b110100001010001100100000000000000000000000000000000000000000000 "
#298
b110100000010001100100000000000000000000000000000000000000000100 "
#300
b110100000010001100100000000000000000000000000000000000000000000 "
#302
b100100010010001100100000000000000000000000000000000000000000100 "
#303
b100101000010001100100000000000000000000000000000000000000000100 "
#304
b100101000010001100100000000000000000000000000000000000000000000 "
#306
b100101000010001100100000000000000000000000000000000000000000100 "
#308
b100101000010001100100000000000000000000000000000000000000000000 "
#310
b100101000110001100100000000000000000000000000000000000000000100 "
#311
b100100000110001100100000000000000000000000000000000000000000100 "
#312
b100100000110001100100000000000000000000000000000000000000000000 "
#314
b100100000010001100110000000000000000000000000000000000000000100 "
#316
b100100000010001100110000000000000000000000000000000000000000000 "
#317
b110100100010001100110000000000000000000000000000000000000000000 "
#318
b110110000010001100110000000000000000000000000000000000000000100 "
#320
b110110000010001100110000000000000000000000000000000000000000000 "
#322
b110110000010001100110000000000000000000000000000000000000000100 "
#324
b110110000010001100110000000000000000000000000000000000000000000 "
#326
b110100001010001100110000000000000000000000000000000000000000100 "
#328
b110100001010001100110000000000000000000000000000000000000000000 "
#330
b110100000010001100110000000000000000000000000000000000000000100 "
#332
b100100010010001100110000000000000000000000000000000000000000000 "
#333
b100101000010001100110000000000000000000000000000000000000000000 "
#334
b100101000010001100110000000000000000000000000000000000000000100 "
#336
b100101000010001100110000000000000000000000000000000000000000000 "
#338
b100101000010001100110000000000000000000000000000000000000000100 "
#340
b100101000010001100110000000000000000000000000000000000000000000 "
#341
b100100000010001100110000000000000000000000000000000000000000000 "
#342
b100100000110001100110000000000000000000000000000000000000000100 "
#344
b100100000110001100110000000000000000000000000000000000000000000 "
#346
b100100000010001101000000000000000000000000000000000000000000100 "
#347
b110100100010001101000000000000000000000000000000000000000000100 "
#348
b110110000010001101000000000000000000000000000000000000000000000 "
#350
b110110000010001101000000000000000000000000000000000000000000100 "
#352
b110110000010001101000000000000000000000000000000000000000000000 "
#354
b110110001010001101000000000000000000000000000000000000000000100 "
#356
b110100001010001101000000000000000000000000000000000000000000000 "
#358
b110100000010001101000000000000000000000000000000000000000000100 "
#360
b110100000010001101000000000000000000000000000000000000000000000 "
#362
b100100010010001101000000000000000000000000000000000000000000100 "
#363
b100101000010001101000000000000000000000000000000000000000000100 "
#364
b100101000010001101000000000000000000000000000000000000000000000 "
#366
b100101000010001101000000000000000000000000000000000000000000100 "
#368
b100101000010001101000000000000000000000000000000000000000000000 "
#370
b100101000110001101000000000000000000000000000000000000000000100 "
#371
b100100000110001101000000000000000000000000000000000000000000100 "
#372
b100100000110001101000000000000000000000000000000000000000000000 "
#374
b100100000010001101010000000000000000000000000000000000000000100 "
#376
b100100000010001101010000000000000000000000000000000000000000000 "
#377
b110100100010001101010000000000000000000000000000000000000000000 "
#378
b110110000010001101010000000000000000000000000000000000000000100 "
#380
b110110000010001101010000000000000000000000000000000000000000000 "
#382
b110110000010001101010000000000000000000000000000000000000000100 "
#384
b110110000010001101010000000000000000000000000000000000000000000 "
#386
b110100001010001101010000000000000000000000000000000000000000100 "
#388
b110100001010001101010000000000000000000000000000000000000000000 "
#390
b110100000010001101010000000000000000000000000000000000000000100 "
#392
b100100010010001101010000000000000000000000000000000000000000000 "
#393
b100101000010001101010000000000000000000000000000000000000000000 "
#394
b100101000010001101010000000000000000000000000000000000000000100 "
#396
b100101000010001101010000000000000000000000000000000000000000000 "
#398
b100101000010001101010000000000000000000000000000000000000000100 "
#400
b100101000010001101010000000000000000000000000000000000000000000 "
#401
b100100000010001101010000000000000000000000000000000000000000000 "
#402
b100100000110001101010000000000000000000000000000000000000000100 "
#404
b100100000110001101010000000000000000000000000000000000000000000 "
#406
b100100000010001101100000000000000000000000000000000000000000100 "
#407
b110100100010001101100000000000000000000000000000000000000000100 "
#408
b110110000010001101100000000000000000000000000000000000000000000 "
#410
b110110000010001101100000000000000000000000000000000000000000100 "
#412
b110110000010001101100000000000000000000000000000000000000000000 "
#414
b110110001010001101100000000000000000000000000000000000000000100 "
#416
b110100001010001101100000000000000000000000000000000000000000000 "
#418
b110100000010001101100000000000000000000000000000000000000000100 "
#420
b110100000010001101100000000000000000000000000000000000000000000 "
#422
b100100010010001101100000000000000000000000000000000000000000100 "
#423
b100101000010001101100000000000000000000000000000000000000000100 "
#424
b100101000010001101100000000000000000000000000000000000000000000 "
#426
b100101000010001101100000000000000000000000000000000000000000100 "
#428
b100101000010001101100000000000000000000000000000000000000000000 "
#430
b100101000110001101100000000000000000000000000000000000000000100 "
#431
b100100000110001101100000000000000000000000000000000000000000100 "
#432
b100100000110001101100000000000000000000000000000000000000000000 "
#434
b100100000010001101110000000000000000000000000000000000000000100 "
#436
b100100000010001101110000000000000000000000000000000000000000000 "
#437
b110100100010001101110000000000000000000000000000000000000000000 "
#438
b110110000010001101110000000000000000000000000000000000000000100 "
#440
b110110000010001101110000000000000000000000000000000000000000000 "
#442
b110110000010001101110000000000000000000000000000000000000000100 "
#444
b110110000010001101110000000000000000000000000000000000000000000 "
#446
b110100001010001101110000000000000000000000000000000000000000100 "
#448
b110100001010001101110000000000000000000000000000000000000000000 "
#450
b110100000010001101110000000000000000000000000000000000000000100 "
#452
b100100010010001101110000000000000000000000000000000000000000000 "
#453
b100101000010001101110000000000000000000000000000000000000000000 "
#454
b100101000010001101110000000000000000000000000000000000000000100 "
#456
b100101000010001101110000000000000000000000000000000000000000000 "
#458
b100101000010001101110000000000000000000000000000000000000000100 "
#460
b100101000010001101110000000000000000000000000000000000000000000 "
#461
b100100000010001101110000000000000000000000000000000000000000000 "
#462
b100100000110001101110000000000000000000000000000000000000000100 "
#464
b100100000110001101110000000000000000000000000000000000000000000 "
#466
b100100000010001110000000000000000000000000000000000000000000100 "
#467
b110100100010001110000000000000000000000000000000000000000000100 "
#468
b110110000010001110000000000000000000000000000000000000000000000 "
#470
b110110000010001110000000000000000000000000000000000000000000100 "
#472
b110110000010001110000000000000000000000000000000000000000000000 "
#474
b110110001010001110000000000000000000000000000000000000000000100 "
#476
b110100001010001110000000000000000000000000000000000000000000000 "
#478
b110100000010001110000000000000000000000000000000000000000000100 "
#480
b110100000010001110000000000000000000000000000000000000000000000 "
#482
b100100010010001110000000000000000000000000000000000000000000100 "
#483
b100101000010001110000000000000000000000000000000000000000000100 "
#484
b100101000010001110000000000000000000000000000000000000000000000 "
#486
b100101000010001110000000000000000000000000000000000000000000100 "
#488
b100101000010001110000000000000000000000000000000000000000000000 "
#490
b100101000110001110000000000000000000000000000000000000000000100 "
#491
b100100000110001110000000000000000000000000000000000000000000100 "
#492
b100100000110001110000000000000000000000000000000000000000000000 "
#494
b100100000010001110010000000000000000000000000000000000000000100 "
#496
b100100000010001110010000000000000000000000000000000000000000000 "
#497
b110100100010001110010000000000000000000000000000000000000000000 "
#498
b110110000010001110010000000000000000000000000000000000000000100 "
#500
b110110000010001110010000000000000000000000000000000000000000000 "
#502
b110110000010001110010000000000000000000000000000000000000000100 "
#504
b110110000010001110010000000000000000000000000000000000000000000 "
#506
b110100001010001110010000000000000000000000000000000000000000100 "
#508
b110100001010001110010000000000000000000000000000000000000000000 "
#510
b110100000010001110010000000000000000000000000000000000000000100 "
#512
b100100010010001110010000000000000000000000000000000000000000000 "
#513
b100101000010001110010000000000000000000000000000000000000000000 "
#514
b100101000010001110010000000000000000000000000000000000000000100 "
#516
b100101000010001110010000000000000000000000000000000000000000000 "
#518
b100101000010001110010000000000000000000000000000000000000000100 "
#520
b100101000010001110010000000000000000000000000000000000000000000 "
#521
b100100000010001110010000000000000000000000000000000000000000000 "
#522
b100100000110001110010000000000000000000000000000000000000000100 "
#524
b100100000110001110010000000000000000000000000000000000000000000 "
#526
b100100000010001110100000000000000000000000000000000000000000100 "
#527
b110100100010001110100000000000000000000000000000000000000000100 "
#528
b110110000010001110100000000000000000000000000000000000000000000 "
#530
b110110000010001110100000000000000000000000000000000000000000100 "
#532
b110110000010001110100000000000000000000000000000000000000000000 "
#534
b110110001010001110100000000000000000000000000000000000000000100 "
#536
b110100001010001110100000000000000000000000000000000000000000000 "
#538
b110100000010001110100000000000000000000000000000000000000000100 "
#540
b110100000010001110100000000000000000000000000000000000000000000 "
#542
b100100010010001110100000000000000000000000000000000000000000100 "
#543
b100101000010001110100000000000000000000000000000000000000000100 "
#544
b100101000010001110100000000000000000000000000000000000000000000 "
#546
b100101000010001110100000000000000000000000000000000000000000100 "
#548
b100101000010001110100000000000000000000000000000000000000000000 "
#550
b100101000110001110100000000000000000000000000000000000000000100 "
#551
b100100000110001110100000000000000000000000000000000000000000100 "
#552
b100100000110001110100000000000000000000000000000000000000000000 "
#554
b100100000010001110110000000000000000000000000000000000000000100 "
#556
b100100000010001110110000000000000000000000000000000000000000000 "
#557
b110100100010001110110000000000000000000000000000000000000000000 "
#558
b110110000010001110110000000000000000000000000000000000000000100 "
#560
b110110000010001110110000000000000000000000000000000000000000000 "
#562
b110110000010001110110000000000000000000000000000000000000000100 "
#564
b110110000010001110110000000000000000000000000000000000000000000 "
#566
b110100001010001110110000000000000000000000000000000000000000100 "
#568
b110100001010001110110000000000000000000000000000000000000000000 "
#570
b110100000010001110110000000000000000000000000000000000000000100 "
#572
b100100010010001110110000000000000000000000000000000000000000000 "
#573
b100101000010001110110000000000000000000000000000000000000000000 "
#574
b100101000010001110110000000000000000000000000000000000000000100 "
#576
b100101000010001110110000000000000000000000000000000000000000000 "
#578
b100101000010001110110000000000000000000000000000000000000000100 "
#580
b100101000010001110110000000000000000000000000000000000000000000 "
#581
b100100000010001110110000000000000000000000000000000000000000000 "
#582
b100100000110001110110000000000000000000000000000000000000000100 "
#584
b100100000110001110110000000000000000000000000000000000000000000 "
#586
b100100000010001111000000000000000000000000000000000000000000100 "
#587
b110100100010001111000000000000000000000000000000000000000000100 "
#588
b110110000010001111000000000000000000000000000000000000000000000 "
#590
b110110000010001111000000000000000000000000000000000000000000100 "
#592
b110110000010001111000000000000000000000000000000000000000000000 "
#594
b110110001010001111000000000000000000000000000000000000000000100 "
#596
b110100001010001111000000000000000000000000000000000000000000000 "
#598
b110100000010001111000000000000000000000000000000000000000000100 "
#600
b110100000010001111000000000000000000000000000000000000000000000 "
#602
b100100010010001111000000000000000000000000000000000000000000100 "
#603
b100101000010001111000000000000000000000000000000000000000000100 "
#604
b100101000010001111000000000000000000000000000000000000000000000 "
#606
b100101000010001111000000000000000000000000000000000000000000100 "
#608
b100101000010001111000000000000000000000000000000000000000000000 "
#610
b100101000110001111000000000000000000000000000000000000000000100 "
#611
b100100000110001111000000000000000000000000000000000000000000100 "
#612
b100100000110001111000000000000000000000000000000000000000000000 "
#614
b100100000010001111010000000000000000000000000000000000000000100 "
#616
b100100000010001111010000000000000000000000000000000000000000000 "
#617
b110100100010001111010000000000000000000000000000000000000000000 "
#618
b110110000010001111010000000000000000000000000000000000000000100 "
#620
b110110000010001111010000000000000000000000000000000000000000000 "
#622
b110110000010001111010000000000000000000000000000000000000000100 "
#624
b110110000010001111010000000000000000000000000000000000000000000 "
#626
b110100001010001111010000000000000000000000000000000000000000100 "
#628
b110100001010001111010000000000000000000000000000000000000000000 "
#630
b110100000010001111010000000000000000000000000000000000000000100 "
#632
b100100010010001111010000000000000000000000000000000000000000000 "
#633
b100101000010001111010000000000000000000000000000000000000000000 "
#634
b100101000010001111010000000000000000000000000000000000000000100 "
#636
b100101000010001111010000000000000000000000000000000000000000000 "
#638
b100101000010001111010000000000000000000000000000000000000000100 "
#640
b100101000010001111010000000000000000000000000000000000000000000 "
#641
b100100000010001111010000000000000000000000000000000000000000000 "
#642
b100100000110001111010000000000000000000000000000000000000000100 "
#644
b100100000110001111010000000000000000000000000000000000000000000 "
#646
b100100000010001111100000000000000000000000000000000000000000100 "
#647
b110100100010001111100000000000000000000000000000000000000000100 "
#648
b110110000010001111100000000000000000000000000000000000000000000 "
#650
b110110000010001111100000000000000000000000000000000000000000100 "
#652
b110110000010001111100000000000000000000000000000000000000000000 "
#654
b110110001010001111100000000000000000000000000000000000000000100 "
#656
b110100001010001111100000000000000000000000000000000000000000000 "
#658
b110100000010001111100000000000000000000000000000000000000000100 "
#660
b110100000010001111100000000000000000000000000000000000000000000 "
#662
b100100010010001111100000000000000000000000000000000000000000100 "
#663
b100101000010001111100000000000000000000000000000000000000000100 "
#664
b100101000010001111100000000000000000000000000000000000000000000 "
#666
b100101000010001111100000000000000000000000000000000000000000100 "
#668
b100101000010001111100000000000000000000000000000000000000000000 "
#670
b100101000110001111100000000000000000000000000000000000000000100 "
#671
b100100000110001111100000000000000000000000000000000000000000100 "
#672
b100100000110001111100000000000000000000000000000000000000000000 "
#674
b100100000010001111110000000000000000000000000000000000000000100 "
#676
b100100000010001111110000000000000000000000000000000000000000000 "
#677
b110100100010001111110000000000000000000000000000000000000000000 "
#678
b110110000010001111110000000000000000000000000000000000000000100 "
#680
b110110000010001111110000000000000000000000000000000000000000000 "
#682
b110110000010001111110000000000000000000000000000000000000000100 "
#684
b110110000010001111110000000000000000000000000000000000000000000 "
#686
b110100001010001111110000000000000000000000000000000000000000100 "
#688
b110100001010001111110000000000000000000000000000000000000000000 "
#690
b110100000010001111110000000000000000000000000000000000000000100 "
#692
b100100010010001111110000000000000000000000000000000000000000000 "
#693
b100101000010001111110000000000000000000000000000000000000000000 "
#694
b100101000010001111110000000000000000000000000000000000000000100 "
#696
b100101000010001111110000000000000000000000000000000000000000000 "
#698
b100101000010001111110000000000000000000000000000000000000000100 "
#700
b100101000010001111110000000000000000000000000000000000000000000 "
#701
b100100000010001111110000000000000000000000000000000000000000000 "
#702
b100100000110001111110000000000000000000000000000000000000000100 "
#704
b100100000110001111110000000000000000000000000000000000000000000 "
#706
b100100000010010000000000000000000000000000000000000000000000100 "
#707
b110100100010010000000000000000000000000000000000000000000000100 "
#708
b110110000010010000000000000000000000000000000000000000000000000 "
#710
b110110000010010000000000000000000000000000000000000000000000100 "
#712
b110110000010010000000000000000000000000000000000000000000000000 "
#714
b110110001010010000000000000000000000000000000000000000000000100 "
#716
b110100001010010000000000000000000000000000000000000000000000000 "
#718
b110100000010010000000000000000000000000000000000000000000000100 "
#720
b110100000010010000000000000000000000000000000000000000000000000 "
#722
b100100010010010000000000000000000000000000000000000000000000100 "
#723
b100101000010010000000000000000000000000000000000000000000000100 "
#724
b100101000010010000000000000000000000000000000000000000000000000 "
#726
b100101000010010000000000000000000000000000000000000000000000100 "
#728
b100101000010010000000000000000000000000000000000000000000000000 "
#730
b100101000110010000000000000000000000000000000000000000000000100 "
#731
b100100000110010000000000000000000000000000000000000000000000100 "
#732
b100100000110010000000000000000000000000000000000000000000000000 "
#734
b100100000010010000010000000000000000000000000000000000000000100 "
#736
b100100000010010000010000000000000000000000000000000000000000000 "
#737
b110100100010010000010000000000000000000000000000000000000000000 "
#738
b110110000010010000010000000000000000000000000000000000000000100 "
#740
b110110000010010000010000000000000000000000000000000000000000000 "
#742
b110110000010010000010000000000000000000000000000000000000000100 "
#744
b110110000010010000010000000000000000000000000000000000000000000 "
#746
b110100001010010000010000000000000000000000000000000000000000100 "
#748
b110100001010010000010000000000000000000000000000000000000000000 "
#750
b110100000010010000010000000000000000000000000000000000000000100 "
#752
b100100010010010000010000000000000000000000000000000000000000000 "
#753
b100101000010010000010000000000000000000000000000000000000000000 "
#754
b100101000010010000010000000000000000000000000000000000000000100 "
#756
b100101000010010000010000000000000000000000000000000000000000000 "
#758
b100101000010010000010000000000000000000000000000000000000000100 "
#760
b100101000010010000010000000000000000000000000000000000000000000 "
#761
b100100000010010000010000000000000000000000000000000000000000000 "
#762
b100100000110010000010000000000000000000000000000000000000000100 "
#764
b100100000110010000010000000000000000000000000000000000000000000 "
#766
b100100000010010000100000000000000000000000000000000000000000100 "
#767
b110100100010010000100000000000000000000000000000000000000000100 "
#768
b110110000010010000100000000000000000000000000000000000000000000 "
#770
b110110000010010000100000000000000000000000000000000000000000100 "
#772
b110110000010010000100000000000000000000000000000000000000000000 "
#774
b110110001010010000100000000000000000000000000000000000000000100 "
#776
b110100001010010000100000000000000000000000000000000000000000000 "
#778
b110100000010010000100000000000000000000000000000000000000000100 "
#780
b110100000010010000100000000000000000000000000000000000000000000 "
#782
b100100010010010000100000000000000000000000000000000000000000100 "
#783
b100101000010010000100000000000000000000000000000000000000000100 "
#784
b100101000010010000100000000000000000000000000000000000000000000 "
#786
b100101000010010000100000000000000000000000000000000000000000100 "
#788
b100101000010010000100000000000000000000000000000000000000000000 "
#790
b100101000110010000100000000000000000000000000000000000000000100 "
#791
b100100000110010000100000000000000000000000000000000000000000100 "
#792
b100100000110010000100000000000000000000000000000000000000000000 "
#794
b100100000010010000110000000000000000000000000000000000000000100 "
#796
b100100000010010000110000000000000000000000000000000000000000000 "
#797
b110100100010010000110000000000000000000000000000000000000000000 "
#798
b110110000010010000110000000000000000000000000000000000000000100 "
#800
b110110000010010000110000000000000000000000000000000000000000000 "
#802
b110110000010010000110000000000000000000000000000000000000000100 "
#804
b110110000010010000110000000000000000000000000000000000000000000 "
#806
b110100001010010000110000000000000000000000000000000000000000100 "
#808
b110100001010010000110000000000000000000000000000000000000000000 "
#810
b110100000010010000110000000000000000000000000000000000000000100 "
#812
b100100010010010000110000000000000000000000000000000000000000000 "
#813
b100101000010010000110000000000000000000000000000000000000000000 "
#814
b100101000010010000110000000000000000000000000000000000000000100 "
#816
b100101000010010000110000000000000000000000000000000000000000000 "
#818
b100101000010010000110000000000000000000000000000000000000000100 "
#820
b100101000010010000110000000000000000000000000000000000000000000 "
#821
b100100000010010000110000000000000000000000000000000000000000000 "
#822
b100100000110010000110000000000000000000000000000000000000000100 "
#824
b100100000110010000110000000000000000000000000000000000000000000 "
#826
b100100000010010001000000000000000000000000000000000000000000100 "
#827
b110100100010010001000000000000000000000000000000000000000000100 "
#828
b110110000010010001000000000000000000000000000000000000000000000 "
#830
b110110000010010001000000000000000000000000000000000000000000100 "
#832
b110110000010010001000000000000000000000000000000000000000000000 "
#834
b110110001010010001000000000000000000000000000000000000000000100 "
#836
b110100001010010001000000000000000000000000000000000000000000000 "
#838
b110100000010010001000000000000000000000000000000000000000000100 "
#840
b110100000010010001000000000000000000000000000000000000000000000 "
#842
b100100010010010001000000000000000000000000000000000000000000100 "
#843
b100101000010010001000000000000000000000000000000000000000000100 "
#844
b100101000010010001000000000000000000000000000000000000000000000 "
#846
b100101000010010001000000000000000000000000000000000000000000100 "
#848
b100101000010010001000000000000000000000000000000000000000000000 "
#850
b100101000110010001000000000000000000000000000000000000000000100 "
#851
b100100000110010001000000000000000000000000000000000000000000100 "
#852
b100100000110010001000000000000000000000000000000000000000000000 "
#854
b100100000010010001010000000000000000000000000000000000000000100 "
#856
b100100000010010001010000000000000000000000000000000000000000000 "
#857
b110100100010010001010000000000000000000000000000000000000000000 "
#858
b110110000010010001010000000000000000000000000000000000000000100 "
#860
b110110000010010001010000000000000000000000000000000000000000000 "
#862
b110110000010010001010000000000000000000000000000000000000000100 "
#864
b110110000010010001010000000000000000000000000000000000000000000 "
#866
b110100001010010001010000000000000000000000000000000000000000100 "
#868
b110100001010010001010000000000000000000000000000000000000000000 "
#870
b110100000010010001010000000000000000000000000000000000000000100 "
#872
b100100010010010001010000000000000000000000000000000000000000000 "
#873
b100101000010010001010000000000000000000000000000000000000000000 "
#874
b100101000010010001010000000000000000000000000000000000000000100 "
#876
b100101000010010001010000000000000000000000000000000000000000000 "
